fraig> cirmiter tests.fraig/sim15.aag myAag/my15.aag

fraig> cirsw

fraig> ciropt

fraig> cirstra
Strashing: 45 merging 973...
Strashing: 44 merging 972...
Strashing: 55 merging 983...
Strashing: 65 merging 993...
Strashing: 64 merging 992...
Strashing: 78 merging 1006...
Strashing: 89 merging 1017...
Strashing: 88 merging 1016...
Strashing: 104 merging 1032...
Strashing: 103 merging 1031...
Strashing: 119 merging 1047...
Strashing: 118 merging 1046...
Strashing: 136 merging 1064...
Strashing: 149 merging 1077...
Strashing: 148 merging 1076...
Strashing: 163 merging 1091...
Strashing: 47 merging 975...
Strashing: 46 merging 974...
Strashing: 56 merging 984...
Strashing: 67 merging 995...
Strashing: 66 merging 994...
Strashing: 79 merging 1007...
Strashing: 91 merging 1019...
Strashing: 90 merging 1018...
Strashing: 105 merging 1033...
Strashing: 173 merging 1101...
Strashing: 172 merging 1100...
Strashing: 187 merging 1115...
Strashing: 197 merging 1125...
Strashing: 196 merging 1124...
Strashing: 211 merging 1139...
Strashing: 221 merging 1149...
Strashing: 220 merging 1148...
Strashing: 235 merging 1163...
Strashing: 245 merging 1173...
Strashing: 244 merging 1172...
Strashing: 259 merging 1187...
Strashing: 43 merging 971...
Strashing: 42 merging 970...
Strashing: 54 merging 982...
Strashing: 63 merging 991...
Strashing: 62 merging 990...
Strashing: 77 merging 1005...
Strashing: 87 merging 1015...
Strashing: 86 merging 1014...
Strashing: 102 merging 1030...
Strashing: 101 merging 1029...
Strashing: 117 merging 1045...
Strashing: 116 merging 1044...
Strashing: 135 merging 1063...
Strashing: 61 merging 989...
Strashing: 60 merging 988...
Strashing: 76 merging 1004...
Strashing: 85 merging 1013...
Strashing: 84 merging 1012...
Strashing: 100 merging 1028...
Strashing: 115 merging 1043...
Strashing: 114 merging 1042...
Strashing: 134 merging 1062...
Strashing: 147 merging 1075...
Strashing: 146 merging 1074...
Strashing: 162 merging 1090...
Strashing: 171 merging 1099...
Strashing: 170 merging 1098...
Strashing: 186 merging 1114...
Strashing: 195 merging 1123...
Strashing: 194 merging 1122...
Strashing: 210 merging 1138...
Strashing: 219 merging 1147...
Strashing: 218 merging 1146...
Strashing: 234 merging 1162...
Strashing: 243 merging 1171...
Strashing: 242 merging 1170...
Strashing: 258 merging 1186...
Strashing: 267 merging 1195...
Strashing: 266 merging 1194...
Strashing: 462 merging 1390...
Strashing: 461 merging 1389...
Strashing: 463 merging 1391...
Strashing: 106 merging 1034...
Strashing: 121 merging 1049...
Strashing: 120 merging 1048...
Strashing: 138 merging 1066...
Strashing: 137 merging 1065...
Strashing: 151 merging 1079...
Strashing: 150 merging 1078...
Strashing: 164 merging 1092...
Strashing: 175 merging 1103...
Strashing: 174 merging 1102...
Strashing: 188 merging 1116...
Strashing: 199 merging 1127...
Strashing: 198 merging 1126...
Strashing: 212 merging 1140...
Strashing: 223 merging 1151...
Strashing: 222 merging 1150...
Strashing: 236 merging 1164...
Strashing: 247 merging 1175...
Strashing: 246 merging 1174...
Strashing: 260 merging 1188...
Strashing: 51 merging 979...
Strashing: 50 merging 978...
Strashing: 58 merging 986...
Strashing: 73 merging 1001...
Strashing: 72 merging 1000...
Strashing: 82 merging 1010...
Strashing: 97 merging 1025...
Strashing: 96 merging 1024...
Strashing: 111 merging 1039...
Strashing: 110 merging 1038...
Strashing: 129 merging 1057...
Strashing: 128 merging 1056...
Strashing: 142 merging 1070...
Strashing: 157 merging 1085...
Strashing: 156 merging 1084...
Strashing: 167 merging 1095...
Strashing: 53 merging 981...
Strashing: 52 merging 980...
Strashing: 59 merging 987...
Strashing: 75 merging 1003...
Strashing: 74 merging 1002...
Strashing: 83 merging 1011...
Strashing: 99 merging 1027...
Strashing: 98 merging 1026...
Strashing: 112 merging 1040...
Strashing: 181 merging 1109...
Strashing: 180 merging 1108...
Strashing: 191 merging 1119...
Strashing: 205 merging 1133...
Strashing: 204 merging 1132...
Strashing: 215 merging 1143...
Strashing: 229 merging 1157...
Strashing: 228 merging 1156...
Strashing: 239 merging 1167...
Strashing: 253 merging 1181...
Strashing: 252 merging 1180...
Strashing: 263 merging 1191...
Strashing: 49 merging 977...
Strashing: 48 merging 976...
Strashing: 57 merging 985...
Strashing: 71 merging 999...
Strashing: 70 merging 998...
Strashing: 81 merging 1009...
Strashing: 95 merging 1023...
Strashing: 94 merging 1022...
Strashing: 109 merging 1037...
Strashing: 108 merging 1036...
Strashing: 127 merging 1055...
Strashing: 126 merging 1054...
Strashing: 141 merging 1069...
Strashing: 69 merging 997...
Strashing: 68 merging 996...
Strashing: 80 merging 1008...
Strashing: 93 merging 1021...
Strashing: 92 merging 1020...
Strashing: 107 merging 1035...
Strashing: 125 merging 1053...
Strashing: 124 merging 1052...
Strashing: 140 merging 1068...
Strashing: 155 merging 1083...
Strashing: 154 merging 1082...
Strashing: 166 merging 1094...
Strashing: 179 merging 1107...
Strashing: 178 merging 1106...
Strashing: 190 merging 1118...
Strashing: 203 merging 1131...
Strashing: 202 merging 1130...
Strashing: 214 merging 1142...
Strashing: 227 merging 1155...
Strashing: 226 merging 1154...
Strashing: 238 merging 1166...
Strashing: 251 merging 1179...
Strashing: 250 merging 1178...
Strashing: 262 merging 1190...
Strashing: 270 merging 1198...
Strashing: 113 merging 1041...
Strashing: 133 merging 1061...
Strashing: 132 merging 1060...
Strashing: 145 merging 1073...
Strashing: 161 merging 1089...
Strashing: 160 merging 1088...
Strashing: 169 merging 1097...
Strashing: 185 merging 1113...
Strashing: 184 merging 1112...
Strashing: 193 merging 1121...
Strashing: 209 merging 1137...
Strashing: 208 merging 1136...
Strashing: 217 merging 1145...
Strashing: 233 merging 1161...
Strashing: 232 merging 1160...
Strashing: 241 merging 1169...
Strashing: 257 merging 1185...
Strashing: 256 merging 1184...
Strashing: 265 merging 1193...
Strashing: 131 merging 1059...
Strashing: 130 merging 1058...
Strashing: 144 merging 1072...
Strashing: 143 merging 1071...
Strashing: 159 merging 1087...
Strashing: 158 merging 1086...
Strashing: 168 merging 1096...
Strashing: 183 merging 1111...
Strashing: 182 merging 1110...
Strashing: 192 merging 1120...
Strashing: 207 merging 1135...
Strashing: 206 merging 1134...
Strashing: 216 merging 1144...
Strashing: 231 merging 1159...
Strashing: 230 merging 1158...
Strashing: 240 merging 1168...
Strashing: 255 merging 1183...
Strashing: 254 merging 1182...
Strashing: 264 merging 1192...
Strashing: 273 merging 1201...
Strashing: 123 merging 1051...
Strashing: 122 merging 1050...
Strashing: 139 merging 1067...
Strashing: 153 merging 1081...
Strashing: 152 merging 1080...
Strashing: 165 merging 1093...
Strashing: 177 merging 1105...
Strashing: 176 merging 1104...
Strashing: 189 merging 1117...
Strashing: 201 merging 1129...
Strashing: 200 merging 1128...
Strashing: 213 merging 1141...
Strashing: 225 merging 1153...
Strashing: 224 merging 1152...
Strashing: 237 merging 1165...
Strashing: 249 merging 1177...
Strashing: 248 merging 1176...
Strashing: 261 merging 1189...
Strashing: 269 merging 1197...
Strashing: 268 merging 1196...
Strashing: 276 merging 1204...
Strashing: 281 merging 1209...
Strashing: 285 merging 1213...
Strashing: 275 merging 1203...
Strashing: 274 merging 1202...
Strashing: 280 merging 1208...
Strashing: 284 merging 1212...
Strashing: 288 merging 1216...
Strashing: 290 merging 1218...
Strashing: 277 merging 1205...
Strashing: 294 merging 1222...
Strashing: 300 merging 1228...
Strashing: 327 merging 1255...
Strashing: 326 merging 1254...
Strashing: 390 merging 1318...
Strashing: 301 merging 1229...
Strashing: 329 merging 1257...
Strashing: 328 merging 1256...
Strashing: 391 merging 1319...
Strashing: 302 merging 1230...
Strashing: 331 merging 1259...
Strashing: 330 merging 1258...
Strashing: 392 merging 1320...
Strashing: 303 merging 1231...
Strashing: 333 merging 1261...
Strashing: 332 merging 1260...
Strashing: 393 merging 1321...
Strashing: 272 merging 1200...
Strashing: 291 merging 1219...
Strashing: 295 merging 1223...
Strashing: 304 merging 1232...
Strashing: 335 merging 1263...
Strashing: 334 merging 1262...
Strashing: 394 merging 1322...
Strashing: 305 merging 1233...
Strashing: 337 merging 1265...
Strashing: 336 merging 1264...
Strashing: 395 merging 1323...
Strashing: 306 merging 1234...
Strashing: 339 merging 1267...
Strashing: 338 merging 1266...
Strashing: 396 merging 1324...
Strashing: 307 merging 1235...
Strashing: 341 merging 1269...
Strashing: 340 merging 1268...
Strashing: 397 merging 1325...
Strashing: 271 merging 1199...
Strashing: 278 merging 1206...
Strashing: 296 merging 1224...
Strashing: 308 merging 1236...
Strashing: 343 merging 1271...
Strashing: 342 merging 1270...
Strashing: 398 merging 1326...
Strashing: 309 merging 1237...
Strashing: 345 merging 1273...
Strashing: 344 merging 1272...
Strashing: 399 merging 1327...
Strashing: 310 merging 1238...
Strashing: 347 merging 1275...
Strashing: 346 merging 1274...
Strashing: 400 merging 1328...
Strashing: 311 merging 1239...
Strashing: 349 merging 1277...
Strashing: 348 merging 1276...
Strashing: 401 merging 1329...
Strashing: 312 merging 1240...
Strashing: 351 merging 1279...
Strashing: 350 merging 1278...
Strashing: 402 merging 1330...
Strashing: 353 merging 1281...
Strashing: 352 merging 1280...
Strashing: 403 merging 1331...
Strashing: 355 merging 1283...
Strashing: 354 merging 1282...
Strashing: 404 merging 1332...
Strashing: 357 merging 1285...
Strashing: 356 merging 1284...
Strashing: 405 merging 1333...
Strashing: 279 merging 1207...
Strashing: 283 merging 1211...
Strashing: 287 merging 1215...
Strashing: 282 merging 1210...
Strashing: 286 merging 1214...
Strashing: 289 merging 1217...
Strashing: 292 merging 1220...
Strashing: 297 merging 1225...
Strashing: 313 merging 1241...
Strashing: 359 merging 1287...
Strashing: 358 merging 1286...
Strashing: 406 merging 1334...
Strashing: 314 merging 1242...
Strashing: 361 merging 1289...
Strashing: 360 merging 1288...
Strashing: 407 merging 1335...
Strashing: 315 merging 1243...
Strashing: 363 merging 1291...
Strashing: 362 merging 1290...
Strashing: 408 merging 1336...
Strashing: 316 merging 1244...
Strashing: 365 merging 1293...
Strashing: 364 merging 1292...
Strashing: 409 merging 1337...
Strashing: 293 merging 1221...
Strashing: 298 merging 1226...
Strashing: 317 merging 1245...
Strashing: 367 merging 1295...
Strashing: 366 merging 1294...
Strashing: 410 merging 1338...
Strashing: 318 merging 1246...
Strashing: 369 merging 1297...
Strashing: 368 merging 1296...
Strashing: 411 merging 1339...
Strashing: 319 merging 1247...
Strashing: 371 merging 1299...
Strashing: 370 merging 1298...
Strashing: 412 merging 1340...
Strashing: 320 merging 1248...
Strashing: 373 merging 1301...
Strashing: 372 merging 1300...
Strashing: 413 merging 1341...
Strashing: 299 merging 1227...
Strashing: 321 merging 1249...
Strashing: 375 merging 1303...
Strashing: 374 merging 1302...
Strashing: 414 merging 1342...
Strashing: 322 merging 1250...
Strashing: 377 merging 1305...
Strashing: 376 merging 1304...
Strashing: 415 merging 1343...
Strashing: 323 merging 1251...
Strashing: 379 merging 1307...
Strashing: 378 merging 1306...
Strashing: 416 merging 1344...
Strashing: 324 merging 1252...
Strashing: 381 merging 1309...
Strashing: 380 merging 1308...
Strashing: 417 merging 1345...
Strashing: 325 merging 1253...
Strashing: 383 merging 1311...
Strashing: 382 merging 1310...
Strashing: 418 merging 1346...
Strashing: 385 merging 1313...
Strashing: 384 merging 1312...
Strashing: 419 merging 1347...
Strashing: 387 merging 1315...
Strashing: 386 merging 1314...
Strashing: 420 merging 1348...
Strashing: 389 merging 1317...
Strashing: 388 merging 1316...
Strashing: 421 merging 1349...

fraig> cirsw

fraig> ciropt

fraig> cirstra

fraig> cirsw

fraig> ciropt

fraig> cirstra

fraig> cirsw

fraig> ciropt

fraig> cirstra

fraig> cirsim -r
MAX_FAILS = 27
Total #FEC Group = 0                              Total #FEC Group = 102                              Total #FEC Group = 128                              Total #FEC Group = 141                              Total #FEC Group = 154                              Total #FEC Group = 174                              Total #FEC Group = 176                              Total #FEC Group = 184                              Total #FEC Group = 194                              Total #FEC Group = 201                              Total #FEC Group = 215                              Total #FEC Group = 219                              Total #FEC Group = 223                              Total #FEC Group = 223                              Total #FEC Group = 232                              Total #FEC Group = 236                              Total #FEC Group = 246                              Total #FEC Group = 252                              Total #FEC Group = 254                              Total #FEC Group = 262                              Total #FEC Group = 266                              Total #FEC Group = 272                              Total #FEC Group = 273                              Total #FEC Group = 280                              Total #FEC Group = 280                              Total #FEC Group = 281                              Total #FEC Group = 281                              Total #FEC Group = 282                              Total #FEC Group = 282                              Total #FEC Group = 289                              Total #FEC Group = 290                              Total #FEC Group = 293                              Total #FEC Group = 293                              Total #FEC Group = 293                              Total #FEC Group = 293                              Total #FEC Group = 298                              Total #FEC Group = 299                              Total #FEC Group = 301                              Total #FEC Group = 301                              Total #FEC Group = 304                              Total #FEC Group = 304                              Total #FEC Group = 306                              Total #FEC Group = 308                              Total #FEC Group = 308                              Total #FEC Group = 312                              Total #FEC Group = 314                              Total #FEC Group = 314                              Total #FEC Group = 314                              Total #FEC Group = 316                              Total #FEC Group = 317                              Total #FEC Group = 317                              Total #FEC Group = 317                              Total #FEC Group = 316                              Total #FEC Group = 318                              Total #FEC Group = 318                              Total #FEC Group = 318                              Total #FEC Group = 319                              Total #FEC Group = 318                              Total #FEC Group = 317                              Total #FEC Group = 317                              Total #FEC Group = 317                              Total #FEC Group = 317                              Total #FEC Group = 317                              Total #FEC Group = 317                              Total #FEC Group = 317                              Total #FEC Group = 317                              Total #FEC Group = 317                              Total #FEC Group = 317                              Total #FEC Group = 317                              Total #FEC Group = 317                              Total #FEC Group = 317                              Total #FEC Group = 317                              2272 patterns simulated.

fraig> cirf
                                   Proving (!523, 105)...UNSAT!!                                   Proving (!487, 104)...UNSAT!!                                   Proving (!649, 259)...UNSAT!!                                   Proving (!514, 102)...UNSAT!!                                   Proving (!478, 134)...UNSAT!!                                   Proving (!631, 258)...UNSAT!!                                   Proving (688, 267)...UNSAT!!                                   Proving (650, 266)...UNSAT!!                                   Proving (727, 1655)...UNSAT!!                                   Proving (489, 1417)...UNSAT!!                                   Proving (488, 1416)...UNSAT!!                                   Proving (490, 1418)...UNSAT!!                                   Proving (463, !466)...UNSAT!!                                   Proving (468, 1396)...UNSAT!!                                   Proving (467, 1395)...UNSAT!!                                   Proving (469, 1397)...UNSAT!!                                   Proving (492, 1420)...UNSAT!!                                   Proving (491, 1419)...UNSAT!!                                   Proving (493, 1421)...UNSAT!!                                   Proving (728, 1656)...UNSAT!!                                   Proving (525, 121)...UNSAT!!                                   Proving (524, 120)...UNSAT!!                                   Proving (526, 138)...UNSAT!!                                   Proving (!529, 260)...UNSAT!!                                   Proving (729, 1657)...UNSAT!!                                   Proving (669, 1597)...UNSAT!!                                   Proving (530, 1458)...UNSAT!!                                   Proving (724, 1652)...UNSAT!!                                   Proving (725, 1653)...UNSAT!!                                   Proving (726, 1654)...UNSAT!!                                   Proving (730, 1658)...UNSAT!!                                   Proving (!560, 112)...UNSAT!!                                   Proving (!551, 111)...UNSAT!!                                   Proving (!566, 263)...UNSAT!!                                   Proving (!451, 140)...UNSAT!!                                   Proving (!442, 109)...UNSAT!!                                   Proving (!457, 262)...UNSAT!!                                   Proving (568, 270)...UNSAT!!                                   Proving (766, 1694)...UNSAT!!                                   Proving (!605, 264)...UNSAT!!                                   Proving (!572, 145)...UNSAT!!                                   Proving (!587, 265)...UNSAT!!                                   Proving (609, 273)...UNSAT!!                                   Proving (784, 1712)...UNSAT!!                                   Proving (797, 1725)...UNSAT!!                                   Proving (799, 1727)...UNSAT!!                                   Proving (798, 1726)...UNSAT!!                                   Proving (800, 1728)...UNSAT!!                                   Proving (895, 1823)...UNSAT!!                                   Proving (894, 1822)...UNSAT!!                                   Proving (896, 1824)...UNSAT!!                                   Proving (793, 1721)...UNSAT!!                                   Proving (795, 1723)...UNSAT!!                                   Proving (794, 1722)...UNSAT!!                                   Proving (796, 1724)...UNSAT!!                                   Proving (892, 1820)...UNSAT!!                                   Proving (891, 1819)...UNSAT!!                                   Proving (893, 1821)...UNSAT!!                                   Proving (923, 1851)...UNSAT!!                                   Proving (789, 1717)...UNSAT!!                                   Proving (791, 1719)...UNSAT!!                                   Proving (790, 1718)...UNSAT!!                                   Proving (792, 1720)...UNSAT!!                                   Proving (889, 1817)...UNSAT!!                                   Proving (888, 1816)...UNSAT!!                                   Proving (890, 1818)...UNSAT!!                                   Proving (785, 1713)...UNSAT!!                                   Proving (787, 1715)...UNSAT!!                                   Proving (786, 1714)...UNSAT!!                                   Proving (788, 1716)...UNSAT!!                                   Proving (886, 1814)...UNSAT!!                                   Proving (885, 1813)...UNSAT!!                                   Proving (887, 1815)...UNSAT!!                                   Proving (922, 1850)...UNSAT!!                                   Proving (924, 1852)...UNSAT!!                                   Proving (608, 272)...UNSAT!!                                   Proving (767, 1695)...UNSAT!!                                   Proving (780, 1708)...UNSAT!!                                   Proving (782, 1710)...UNSAT!!                                   Proving (781, 1709)...UNSAT!!                                   Proving (783, 1711)...UNSAT!!                                   Proving (883, 1811)...UNSAT!!                                   Proving (882, 1810)...UNSAT!!                                   Proving (884, 1812)...UNSAT!!                                   Proving (776, 1704)...UNSAT!!                                   Proving (778, 1706)...UNSAT!!                                   Proving (777, 1705)...UNSAT!!                                   Proving (779, 1707)...UNSAT!!                                   Proving (880, 1808)...UNSAT!!                                   Proving (879, 1807)...UNSAT!!                                   Proving (881, 1809)...UNSAT!!                                   Proving (920, 1848)...UNSAT!!                                   Proving (772, 1700)...UNSAT!!                                   Proving (774, 1702)...UNSAT!!                                   Proving (773, 1701)...UNSAT!!                                   Proving (775, 1703)...UNSAT!!                                   Proving (338, 877)...SAT!!                                   Proving (877, 1805)...UNSAT!!                                   Proving (876, 1804)...UNSAT!!                                   Proving (878, 1806)...UNSAT!!                                   Proving (768, 1696)...UNSAT!!                                   Proving (770, 1698)...UNSAT!!                                   Proving (769, 1697)...UNSAT!!                                   Proving (771, 1699)...UNSAT!!                                   Proving (874, 1802)...UNSAT!!                                   Proving (873, 1801)...UNSAT!!                                   Proving (875, 1803)...UNSAT!!                                   Proving (919, 1847)...UNSAT!!                                   Proving (921, 1849)...UNSAT!!                                   Proving (925, 1853)...UNSAT!!                                   Proving (567, 271)...UNSAT!!                                   Proving (731, 1659)...UNSAT!!                                   Proving (749, 1677)...UNSAT!!                                   Proving (762, 1690)...UNSAT!!                                   Proving (764, 1692)...UNSAT!!                                   Proving (763, 1691)...UNSAT!!                                   Proving (765, 1693)...UNSAT!!                                   Proving (871, 1799)...UNSAT!!                                   Proving (870, 1798)...UNSAT!!                                   Proving (872, 1800)...UNSAT!!                                   Proving (758, 1686)...UNSAT!!                                   Proving (760, 1688)...UNSAT!!                                   Proving (759, 1687)...UNSAT!!                                   Proving (761, 1689)...UNSAT!!                                   Proving (868, 1796)...UNSAT!!                                   Proving (867, 1795)...UNSAT!!                                   Proving (869, 1797)...UNSAT!!                                   Proving (916, 1844)...UNSAT!!                                   Proving (754, 1682)...UNSAT!!                                   Proving (756, 1684)...UNSAT!!                                   Proving (755, 1683)...UNSAT!!                                   Proving (757, 1685)...UNSAT!!                                   Proving (865, 1793)...UNSAT!!                                   Proving (864, 1792)...UNSAT!!                                   Proving (866, 1794)...UNSAT!!                                   Proving (750, 1678)...UNSAT!!                                   Proving (752, 1680)...UNSAT!!                                   Proving (751, 1679)...UNSAT!!                                   Proving (753, 1681)...UNSAT!!                                   Proving (862, 1790)...UNSAT!!                                   Proving (861, 1789)...UNSAT!!                                   Proving (863, 1791)...UNSAT!!                                   Proving (915, 1843)...UNSAT!!                                   Proving (917, 1845)...UNSAT!!                                   Proving (732, 1660)...UNSAT!!                                   Proving (745, 1673)...UNSAT!!                                   Proving (747, 1675)...UNSAT!!                                   Proving (746, 1674)...UNSAT!!                                   Proving (748, 1676)...UNSAT!!                                   Proving (859, 1787)...UNSAT!!                                   Proving (858, 1786)...UNSAT!!                                   Proving (860, 1788)...UNSAT!!                                   Proving (741, 1669)...UNSAT!!                                   Proving (743, 1671)...UNSAT!!                                   Proving (742, 1670)...UNSAT!!                                   Proving (744, 1672)...UNSAT!!                                   Proving (856, 1784)...UNSAT!!                                   Proving (855, 1783)...UNSAT!!                                   Proving (857, 1785)...UNSAT!!                                   Proving (913, 1841)...UNSAT!!                                   Proving (737, 1665)...UNSAT!!                                   Proving (739, 1667)...UNSAT!!                                   Proving (738, 1666)...UNSAT!!                                   Proving (740, 1668)...UNSAT!!                                   Proving (853, 1781)...UNSAT!!                                   Proving (852, 1780)...UNSAT!!                                   Proving (854, 1782)...UNSAT!!                                   Proving (733, 1661)...UNSAT!!                                   Proving (735, 1663)...UNSAT!!                                   Proving (734, 1662)...UNSAT!!                                   Proving (736, 1664)...UNSAT!!                                   Proving (850, 1778)...UNSAT!!                                   Proving (849, 1777)...UNSAT!!                                   Proving (851, 1779)...UNSAT!!                                   Proving (912, 1840)...UNSAT!!                                   Proving (914, 1842)...UNSAT!!                                   Proving (918, 1846)...UNSAT!!                                   Proving (926, 1854)...UNSAT!!                                   Proving (610, 279)...UNSAT!!                                   Proving (612, 287)...UNSAT!!                                   Proving (607, 286)...UNSAT!!                                   Proving (613, 289)...UNSAT!!                                   Proving (670, 1598)...UNSAT!!                                   Proving (707, 1635)...UNSAT!!                                   Proving (720, 1648)...UNSAT!!                                   Proving (722, 1650)...UNSAT!!                                   Proving (721, 1649)...UNSAT!!                                   Proving (723, 1651)...UNSAT!!                                   Proving (847, 1775)...UNSAT!!                                   Proving (846, 1774)...UNSAT!!                                   Proving (848, 1776)...UNSAT!!                                   Proving (716, 1644)...UNSAT!!                                   Proving (718, 1646)...UNSAT!!                                   Proving (717, 1645)...UNSAT!!                                   Proving (719, 1647)...UNSAT!!                                   Proving (844, 1772)...UNSAT!!                                   Proving (843, 1771)...UNSAT!!                                   Proving (845, 1773)...UNSAT!!                                   Proving (908, 1836)...UNSAT!!                                   Proving (712, 1640)...UNSAT!!                                   Proving (714, 1642)...UNSAT!!                                   Proving (713, 1641)...UNSAT!!                                   Proving (715, 1643)...UNSAT!!                                   Proving (841, 1769)...UNSAT!!                                   Proving (840, 1768)...UNSAT!!                                   Proving (842, 1770)...UNSAT!!                                   Proving (708, 1636)...UNSAT!!                                   Proving (710, 1638)...UNSAT!!                                   Proving (709, 1637)...UNSAT!!                                   Proving (711, 1639)...UNSAT!!                                   Proving (838, 1766)...UNSAT!!                                   Proving (837, 1765)...UNSAT!!                                   Proving (839, 1767)...UNSAT!!                                   Proving (907, 1835)...UNSAT!!                                   Proving (909, 1837)...UNSAT!!                                   Proving (689, 1617)...UNSAT!!                                   Proving (690, 1618)...UNSAT!!                                   Proving (703, 1631)...UNSAT!!                                   Proving (705, 1633)...UNSAT!!                                   Proving (704, 1632)...UNSAT!!                                   Proving (706, 1634)...UNSAT!!                                   Proving (835, 1763)...UNSAT!!                                   Proving (834, 1762)...UNSAT!!                                   Proving (836, 1764)...UNSAT!!                                   Proving (699, 1627)...UNSAT!!                                   Proving (701, 1629)...UNSAT!!                                   Proving (700, 1628)...UNSAT!!                                   Proving (702, 1630)...UNSAT!!                                   Proving (832, 1760)...UNSAT!!                                   Proving (831, 1759)...UNSAT!!                                   Proving (833, 1761)...UNSAT!!                                   Proving (905, 1833)...UNSAT!!                                   Proving (695, 1623)...UNSAT!!                                   Proving (697, 1625)...UNSAT!!                                   Proving (696, 1624)...UNSAT!!                                   Proving (698, 1626)...UNSAT!!                                   Proving (829, 1757)...UNSAT!!                                   Proving (828, 1756)...UNSAT!!                                   Proving (830, 1758)...UNSAT!!                                   Proving (691, 1619)...UNSAT!!                                   Proving (693, 1621)...UNSAT!!                                   Proving (692, 1620)...UNSAT!!                                   Proving (694, 1622)...UNSAT!!                                   Proving (826, 1754)...UNSAT!!                                   Proving (825, 1753)...UNSAT!!                                   Proving (827, 1755)...UNSAT!!                                   Proving (904, 1832)...UNSAT!!                                   Proving (906, 1834)...UNSAT!!                                   Proving (910, 1838)...UNSAT!!                                   Proving (671, 1599)...UNSAT!!                                   Proving (684, 1612)...UNSAT!!                                   Proving (686, 1614)...UNSAT!!                                   Proving (685, 1613)...UNSAT!!                                   Proving (687, 1615)...UNSAT!!                                   Proving (823, 1751)...UNSAT!!                                   Proving (822, 1750)...UNSAT!!                                   Proving (824, 1752)...UNSAT!!                                   Proving (680, 1608)...UNSAT!!                                   Proving (682, 1610)...UNSAT!!                                   Proving (681, 1609)...UNSAT!!                                   Proving (683, 1611)...UNSAT!!                                   Proving (820, 1748)...UNSAT!!                                   Proving (819, 1747)...UNSAT!!                                   Proving (821, 1749)...UNSAT!!                                   Proving (901, 1829)...UNSAT!!                                   Proving (676, 1604)...UNSAT!!                                   Proving (678, 1606)...UNSAT!!                                   Proving (677, 1605)...UNSAT!!                                   Proving (679, 1607)...UNSAT!!                                   Proving (817, 1745)...UNSAT!!                                   Proving (816, 1744)...UNSAT!!                                   Proving (818, 1746)...UNSAT!!                                   Proving (672, 1600)...UNSAT!!                                   Proving (674, 1602)...UNSAT!!                                   Proving (673, 1601)...UNSAT!!                                   Proving (675, 1603)...UNSAT!!                                   Proving (814, 1742)...UNSAT!!                                   Proving (813, 1741)...UNSAT!!                                   Proving (815, 1743)...UNSAT!!                                   Proving (900, 1828)...UNSAT!!                                   Proving (902, 1830)...UNSAT!!                                   Proving (651, 1579)...UNSAT!!                                   Proving (652, 1580)...UNSAT!!                                   Proving (665, 1593)...UNSAT!!                                   Proving (667, 1595)...UNSAT!!                                   Proving (666, 1594)...UNSAT!!                                   Proving (668, 1596)...UNSAT!!                                   Proving (811, 1739)...UNSAT!!                                   Proving (810, 1738)...UNSAT!!                                   Proving (812, 1740)...UNSAT!!                                   Proving (661, 1589)...UNSAT!!                                   Proving (663, 1591)...UNSAT!!                                   Proving (662, 1590)...UNSAT!!                                   Proving (664, 1592)...UNSAT!!                                   Proving (808, 1736)...UNSAT!!                                   Proving (807, 1735)...UNSAT!!                                   Proving (809, 1737)...UNSAT!!                                   Proving (898, 1826)...UNSAT!!                                   Proving (657, 1585)...UNSAT!!                                   Proving (659, 1587)...UNSAT!!                                   Proving (658, 1586)...UNSAT!!                                   Proving (660, 1588)...UNSAT!!                                   Proving (805, 1733)...UNSAT!!                                   Proving (804, 1732)...UNSAT!!                                   Proving (806, 1734)...UNSAT!!                                   Proving (653, 1581)...UNSAT!!                                   Proving (655, 1583)...UNSAT!!                                   Proving (654, 1582)...UNSAT!!                                   Proving (656, 1584)...UNSAT!!                                   Proving (802, 1730)...UNSAT!!                                   Proving (801, 1729)...UNSAT!!                                   Proving (803, 1731)...UNSAT!!                                   Proving (897, 1825)...UNSAT!!                                   Proving (899, 1827)...UNSAT!!                                   Proving (903, 1831)...UNSAT!!                                   Proving (911, 1839)...UNSAT!!                                   Proving (927, 1855)...UNSAT!!                                   Proving (927, !1856)...UNSAT!!                                   Proving (927, 1857)...UNSAT!!                                   Proving 1858 = 1...UNSAT!!                                   Fraig: 463 merging !466...
Fraig: 487 merging !104...
Fraig: 478 merging !134...
Fraig: 523 merging !105...
Fraig: 514 merging !102...
Fraig: 525 merging 121...
Fraig: 524 merging 120...
Fraig: 526 merging 138...
Fraig: 529 merging !260...
Fraig: 649 merging !259...
Fraig: 631 merging !258...
Fraig: 688 merging 267...
Fraig: 650 merging 266...
Fraig: 551 merging !111...
Fraig: 572 merging !145...
Fraig: 451 merging !140...
Fraig: 587 merging !265...
Fraig: 560 merging !112...
Fraig: 566 merging !263...
Fraig: 442 merging !109...
Fraig: 457 merging !262...
Fraig: 568 merging 270...
Fraig: 605 merging !264...
Fraig: 608 merging 272...
Fraig: 567 merging 271...
Fraig: 609 merging 273...
Fraig: 610 merging 279...
Fraig: 612 merging 287...
Fraig: 607 merging 286...
Fraig: 613 merging 289...
Fraig: 727 merging 1655...
Fraig: 489 merging 1417...
Fraig: 488 merging 1416...
Fraig: 490 merging 1418...
Fraig: 468 merging 1396...
Fraig: 467 merging 1395...
Fraig: 469 merging 1397...
Fraig: 492 merging 1420...
Fraig: 491 merging 1419...
Fraig: 493 merging 1421...
Fraig: 728 merging 1656...
Fraig: 729 merging 1657...
Fraig: 669 merging 1597...
Fraig: 530 merging 1458...
Fraig: 724 merging 1652...
Fraig: 725 merging 1653...
Fraig: 726 merging 1654...
Fraig: 730 merging 1658...
Fraig: 766 merging 1694...
Fraig: 784 merging 1712...
Fraig: 797 merging 1725...
Fraig: 799 merging 1727...
Fraig: 798 merging 1726...
Fraig: 800 merging 1728...
Fraig: 895 merging 1823...
Fraig: 894 merging 1822...
Fraig: 896 merging 1824...
Fraig: 793 merging 1721...
Fraig: 795 merging 1723...
Fraig: 794 merging 1722...
Fraig: 796 merging 1724...
Fraig: 892 merging 1820...
Fraig: 891 merging 1819...
Fraig: 893 merging 1821...
Fraig: 923 merging 1851...
Fraig: 789 merging 1717...
Fraig: 791 merging 1719...
Fraig: 790 merging 1718...
Fraig: 792 merging 1720...
Fraig: 889 merging 1817...
Fraig: 888 merging 1816...
Fraig: 890 merging 1818...
Fraig: 785 merging 1713...
Fraig: 787 merging 1715...
Fraig: 786 merging 1714...
Fraig: 788 merging 1716...
Fraig: 886 merging 1814...
Fraig: 885 merging 1813...
Fraig: 887 merging 1815...
Fraig: 922 merging 1850...
Fraig: 924 merging 1852...
Fraig: 767 merging 1695...
Fraig: 780 merging 1708...
Fraig: 782 merging 1710...
Fraig: 781 merging 1709...
Fraig: 783 merging 1711...
Fraig: 883 merging 1811...
Fraig: 882 merging 1810...
Fraig: 884 merging 1812...
Fraig: 776 merging 1704...
Fraig: 778 merging 1706...
Fraig: 777 merging 1705...
Fraig: 779 merging 1707...
Fraig: 880 merging 1808...
Fraig: 879 merging 1807...
Fraig: 881 merging 1809...
Fraig: 920 merging 1848...
Fraig: 772 merging 1700...
Fraig: 774 merging 1702...
Fraig: 773 merging 1701...
Fraig: 775 merging 1703...
Fraig: 877 merging 1805...
Fraig: 876 merging 1804...
Fraig: 878 merging 1806...
Fraig: 768 merging 1696...
Fraig: 770 merging 1698...
Fraig: 769 merging 1697...
Fraig: 771 merging 1699...
Fraig: 874 merging 1802...
Fraig: 873 merging 1801...
Fraig: 875 merging 1803...
Fraig: 919 merging 1847...
Fraig: 921 merging 1849...
Fraig: 925 merging 1853...
Fraig: 731 merging 1659...
Fraig: 749 merging 1677...
Fraig: 762 merging 1690...
Fraig: 764 merging 1692...
Fraig: 763 merging 1691...
Fraig: 765 merging 1693...
Fraig: 871 merging 1799...
Fraig: 870 merging 1798...
Fraig: 872 merging 1800...
Fraig: 758 merging 1686...
Fraig: 760 merging 1688...
Fraig: 759 merging 1687...
Fraig: 761 merging 1689...
Fraig: 868 merging 1796...
Fraig: 867 merging 1795...
Fraig: 869 merging 1797...
Fraig: 916 merging 1844...
Fraig: 754 merging 1682...
Fraig: 756 merging 1684...
Fraig: 755 merging 1683...
Fraig: 757 merging 1685...
Fraig: 865 merging 1793...
Fraig: 864 merging 1792...
Fraig: 866 merging 1794...
Fraig: 750 merging 1678...
Fraig: 752 merging 1680...
Fraig: 751 merging 1679...
Fraig: 753 merging 1681...
Fraig: 862 merging 1790...
Fraig: 861 merging 1789...
Fraig: 863 merging 1791...
Fraig: 915 merging 1843...
Fraig: 917 merging 1845...
Fraig: 732 merging 1660...
Fraig: 745 merging 1673...
Fraig: 747 merging 1675...
Fraig: 746 merging 1674...
Fraig: 748 merging 1676...
Fraig: 859 merging 1787...
Fraig: 858 merging 1786...
Fraig: 860 merging 1788...
Fraig: 741 merging 1669...
Fraig: 743 merging 1671...
Fraig: 742 merging 1670...
Fraig: 744 merging 1672...
Fraig: 856 merging 1784...
Fraig: 855 merging 1783...
Fraig: 857 merging 1785...
Fraig: 913 merging 1841...
Fraig: 737 merging 1665...
Fraig: 739 merging 1667...
Fraig: 738 merging 1666...
Fraig: 740 merging 1668...
Fraig: 853 merging 1781...
Fraig: 852 merging 1780...
Fraig: 854 merging 1782...
Fraig: 733 merging 1661...
Fraig: 735 merging 1663...
Fraig: 734 merging 1662...
Fraig: 736 merging 1664...
Fraig: 850 merging 1778...
Fraig: 849 merging 1777...
Fraig: 851 merging 1779...
Fraig: 912 merging 1840...
Fraig: 914 merging 1842...
Fraig: 918 merging 1846...
Fraig: 926 merging 1854...
Fraig: 670 merging 1598...
Fraig: 707 merging 1635...
Fraig: 720 merging 1648...
Fraig: 722 merging 1650...
Fraig: 721 merging 1649...
Fraig: 723 merging 1651...
Fraig: 847 merging 1775...
Fraig: 846 merging 1774...
Fraig: 848 merging 1776...
Fraig: 716 merging 1644...
Fraig: 718 merging 1646...
Fraig: 717 merging 1645...
Fraig: 719 merging 1647...
Fraig: 844 merging 1772...
Fraig: 843 merging 1771...
Fraig: 845 merging 1773...
Fraig: 908 merging 1836...
Fraig: 712 merging 1640...
Fraig: 714 merging 1642...
Fraig: 713 merging 1641...
Fraig: 715 merging 1643...
Fraig: 841 merging 1769...
Fraig: 840 merging 1768...
Fraig: 842 merging 1770...
Fraig: 708 merging 1636...
Fraig: 710 merging 1638...
Fraig: 709 merging 1637...
Fraig: 711 merging 1639...
Fraig: 838 merging 1766...
Fraig: 837 merging 1765...
Fraig: 839 merging 1767...
Fraig: 907 merging 1835...
Fraig: 909 merging 1837...
Fraig: 689 merging 1617...
Fraig: 690 merging 1618...
Fraig: 703 merging 1631...
Fraig: 705 merging 1633...
Fraig: 704 merging 1632...
Fraig: 706 merging 1634...
Fraig: 835 merging 1763...
Fraig: 834 merging 1762...
Fraig: 836 merging 1764...
Fraig: 699 merging 1627...
Fraig: 701 merging 1629...
Fraig: 700 merging 1628...
Fraig: 702 merging 1630...
Fraig: 832 merging 1760...
Fraig: 831 merging 1759...
Fraig: 833 merging 1761...
Fraig: 905 merging 1833...
Fraig: 695 merging 1623...
Fraig: 697 merging 1625...
Fraig: 696 merging 1624...
Fraig: 698 merging 1626...
Fraig: 829 merging 1757...
Fraig: 828 merging 1756...
Fraig: 830 merging 1758...
Fraig: 691 merging 1619...
Fraig: 693 merging 1621...
Fraig: 692 merging 1620...
Fraig: 694 merging 1622...
Fraig: 826 merging 1754...
Fraig: 825 merging 1753...
Fraig: 827 merging 1755...
Fraig: 904 merging 1832...
Fraig: 906 merging 1834...
Fraig: 910 merging 1838...
Fraig: 671 merging 1599...
Fraig: 684 merging 1612...
Fraig: 686 merging 1614...
Fraig: 685 merging 1613...
Fraig: 687 merging 1615...
Fraig: 823 merging 1751...
Fraig: 822 merging 1750...
Fraig: 824 merging 1752...
Fraig: 680 merging 1608...
Fraig: 682 merging 1610...
Fraig: 681 merging 1609...
Fraig: 683 merging 1611...
Fraig: 820 merging 1748...
Fraig: 819 merging 1747...
Fraig: 821 merging 1749...
Fraig: 901 merging 1829...
Fraig: 676 merging 1604...
Fraig: 678 merging 1606...
Fraig: 677 merging 1605...
Fraig: 679 merging 1607...
Fraig: 817 merging 1745...
Fraig: 816 merging 1744...
Fraig: 818 merging 1746...
Fraig: 672 merging 1600...
Fraig: 674 merging 1602...
Fraig: 673 merging 1601...
Fraig: 675 merging 1603...
Fraig: 814 merging 1742...
Fraig: 813 merging 1741...
Fraig: 815 merging 1743...
Fraig: 900 merging 1828...
Fraig: 902 merging 1830...
Fraig: 651 merging 1579...
Fraig: 652 merging 1580...
Fraig: 665 merging 1593...
Fraig: 667 merging 1595...
Fraig: 666 merging 1594...
Fraig: 668 merging 1596...
Fraig: 811 merging 1739...
Fraig: 810 merging 1738...
Fraig: 812 merging 1740...
Fraig: 661 merging 1589...
Fraig: 663 merging 1591...
Fraig: 662 merging 1590...
Fraig: 664 merging 1592...
Fraig: 808 merging 1736...
Fraig: 807 merging 1735...
Fraig: 809 merging 1737...
Fraig: 898 merging 1826...
Fraig: 657 merging 1585...
Fraig: 659 merging 1587...
Fraig: 658 merging 1586...
Fraig: 660 merging 1588...
Fraig: 805 merging 1733...
Fraig: 804 merging 1732...
Fraig: 806 merging 1734...
Fraig: 653 merging 1581...
Fraig: 655 merging 1583...
Fraig: 654 merging 1582...
Fraig: 656 merging 1584...
Fraig: 802 merging 1730...
Fraig: 801 merging 1729...
Fraig: 803 merging 1731...
Fraig: 897 merging 1825...
Fraig: 899 merging 1827...
Fraig: 903 merging 1831...
Fraig: 911 merging 1839...
Fraig: 927 merging 1855...
Fraig: 927 merging !1856...
Fraig: 927 merging 1857...
Fraig: 0 merging 1858...
Updating by UNSAT... Total #FEC Group = 0
Updating by SAT... Total #FEC Group = 0

fraig> cirsw
Sweeping: AIG(42) removed...
Sweeping: AIG(43) removed...
Sweeping: AIG(44) removed...
Sweeping: AIG(45) removed...
Sweeping: AIG(46) removed...
Sweeping: AIG(47) removed...
Sweeping: AIG(48) removed...
Sweeping: AIG(49) removed...
Sweeping: AIG(50) removed...
Sweeping: AIG(51) removed...
Sweeping: AIG(52) removed...
Sweeping: AIG(53) removed...
Sweeping: AIG(54) removed...
Sweeping: AIG(55) removed...
Sweeping: AIG(56) removed...
Sweeping: AIG(57) removed...
Sweeping: AIG(58) removed...
Sweeping: AIG(59) removed...
Sweeping: AIG(60) removed...
Sweeping: AIG(61) removed...
Sweeping: AIG(62) removed...
Sweeping: AIG(63) removed...
Sweeping: AIG(64) removed...
Sweeping: AIG(65) removed...
Sweeping: AIG(66) removed...
Sweeping: AIG(67) removed...
Sweeping: AIG(68) removed...
Sweeping: AIG(69) removed...
Sweeping: AIG(70) removed...
Sweeping: AIG(71) removed...
Sweeping: AIG(72) removed...
Sweeping: AIG(73) removed...
Sweeping: AIG(74) removed...
Sweeping: AIG(75) removed...
Sweeping: AIG(76) removed...
Sweeping: AIG(77) removed...
Sweeping: AIG(78) removed...
Sweeping: AIG(79) removed...
Sweeping: AIG(80) removed...
Sweeping: AIG(81) removed...
Sweeping: AIG(82) removed...
Sweeping: AIG(83) removed...
Sweeping: AIG(84) removed...
Sweeping: AIG(85) removed...
Sweeping: AIG(86) removed...
Sweeping: AIG(87) removed...
Sweeping: AIG(88) removed...
Sweeping: AIG(89) removed...
Sweeping: AIG(90) removed...
Sweeping: AIG(91) removed...
Sweeping: AIG(92) removed...
Sweeping: AIG(93) removed...
Sweeping: AIG(94) removed...
Sweeping: AIG(95) removed...
Sweeping: AIG(96) removed...
Sweeping: AIG(97) removed...
Sweeping: AIG(98) removed...
Sweeping: AIG(99) removed...
Sweeping: AIG(100) removed...
Sweeping: AIG(101) removed...
Sweeping: AIG(103) removed...
Sweeping: AIG(106) removed...
Sweeping: AIG(107) removed...
Sweeping: AIG(108) removed...
Sweeping: AIG(110) removed...
Sweeping: AIG(113) removed...
Sweeping: AIG(114) removed...
Sweeping: AIG(115) removed...
Sweeping: AIG(116) removed...
Sweeping: AIG(117) removed...
Sweeping: AIG(118) removed...
Sweeping: AIG(119) removed...
Sweeping: AIG(122) removed...
Sweeping: AIG(123) removed...
Sweeping: AIG(124) removed...
Sweeping: AIG(125) removed...
Sweeping: AIG(126) removed...
Sweeping: AIG(127) removed...
Sweeping: AIG(128) removed...
Sweeping: AIG(129) removed...
Sweeping: AIG(130) removed...
Sweeping: AIG(131) removed...
Sweeping: AIG(132) removed...
Sweeping: AIG(133) removed...
Sweeping: AIG(135) removed...
Sweeping: AIG(136) removed...
Sweeping: AIG(137) removed...
Sweeping: AIG(139) removed...
Sweeping: AIG(141) removed...
Sweeping: AIG(142) removed...
Sweeping: AIG(143) removed...
Sweeping: AIG(144) removed...
Sweeping: AIG(146) removed...
Sweeping: AIG(147) removed...
Sweeping: AIG(148) removed...
Sweeping: AIG(149) removed...
Sweeping: AIG(150) removed...
Sweeping: AIG(151) removed...
Sweeping: AIG(152) removed...
Sweeping: AIG(153) removed...
Sweeping: AIG(154) removed...
Sweeping: AIG(155) removed...
Sweeping: AIG(156) removed...
Sweeping: AIG(157) removed...
Sweeping: AIG(158) removed...
Sweeping: AIG(159) removed...
Sweeping: AIG(160) removed...
Sweeping: AIG(161) removed...
Sweeping: AIG(162) removed...
Sweeping: AIG(163) removed...
Sweeping: AIG(164) removed...
Sweeping: AIG(165) removed...
Sweeping: AIG(166) removed...
Sweeping: AIG(167) removed...
Sweeping: AIG(168) removed...
Sweeping: AIG(169) removed...
Sweeping: AIG(170) removed...
Sweeping: AIG(171) removed...
Sweeping: AIG(172) removed...
Sweeping: AIG(173) removed...
Sweeping: AIG(174) removed...
Sweeping: AIG(175) removed...
Sweeping: AIG(176) removed...
Sweeping: AIG(177) removed...
Sweeping: AIG(178) removed...
Sweeping: AIG(179) removed...
Sweeping: AIG(180) removed...
Sweeping: AIG(181) removed...
Sweeping: AIG(182) removed...
Sweeping: AIG(183) removed...
Sweeping: AIG(184) removed...
Sweeping: AIG(185) removed...
Sweeping: AIG(186) removed...
Sweeping: AIG(187) removed...
Sweeping: AIG(188) removed...
Sweeping: AIG(189) removed...
Sweeping: AIG(190) removed...
Sweeping: AIG(191) removed...
Sweeping: AIG(192) removed...
Sweeping: AIG(193) removed...
Sweeping: AIG(194) removed...
Sweeping: AIG(195) removed...
Sweeping: AIG(196) removed...
Sweeping: AIG(197) removed...
Sweeping: AIG(198) removed...
Sweeping: AIG(199) removed...
Sweeping: AIG(200) removed...
Sweeping: AIG(201) removed...
Sweeping: AIG(202) removed...
Sweeping: AIG(203) removed...
Sweeping: AIG(204) removed...
Sweeping: AIG(205) removed...
Sweeping: AIG(206) removed...
Sweeping: AIG(207) removed...
Sweeping: AIG(208) removed...
Sweeping: AIG(209) removed...
Sweeping: AIG(210) removed...
Sweeping: AIG(211) removed...
Sweeping: AIG(212) removed...
Sweeping: AIG(213) removed...
Sweeping: AIG(214) removed...
Sweeping: AIG(215) removed...
Sweeping: AIG(216) removed...
Sweeping: AIG(217) removed...
Sweeping: AIG(218) removed...
Sweeping: AIG(219) removed...
Sweeping: AIG(220) removed...
Sweeping: AIG(221) removed...
Sweeping: AIG(222) removed...
Sweeping: AIG(223) removed...
Sweeping: AIG(224) removed...
Sweeping: AIG(225) removed...
Sweeping: AIG(226) removed...
Sweeping: AIG(227) removed...
Sweeping: AIG(228) removed...
Sweeping: AIG(229) removed...
Sweeping: AIG(230) removed...
Sweeping: AIG(231) removed...
Sweeping: AIG(232) removed...
Sweeping: AIG(233) removed...
Sweeping: AIG(234) removed...
Sweeping: AIG(235) removed...
Sweeping: AIG(236) removed...
Sweeping: AIG(237) removed...
Sweeping: AIG(238) removed...
Sweeping: AIG(239) removed...
Sweeping: AIG(240) removed...
Sweeping: AIG(241) removed...
Sweeping: AIG(242) removed...
Sweeping: AIG(243) removed...
Sweeping: AIG(244) removed...
Sweeping: AIG(245) removed...
Sweeping: AIG(246) removed...
Sweeping: AIG(247) removed...
Sweeping: AIG(248) removed...
Sweeping: AIG(249) removed...
Sweeping: AIG(250) removed...
Sweeping: AIG(251) removed...
Sweeping: AIG(252) removed...
Sweeping: AIG(253) removed...
Sweeping: AIG(254) removed...
Sweeping: AIG(255) removed...
Sweeping: AIG(256) removed...
Sweeping: AIG(257) removed...
Sweeping: AIG(261) removed...
Sweeping: AIG(268) removed...
Sweeping: AIG(269) removed...
Sweeping: AIG(274) removed...
Sweeping: AIG(275) removed...
Sweeping: AIG(276) removed...
Sweeping: AIG(277) removed...
Sweeping: AIG(278) removed...
Sweeping: AIG(280) removed...
Sweeping: AIG(281) removed...
Sweeping: AIG(282) removed...
Sweeping: AIG(283) removed...
Sweeping: AIG(284) removed...
Sweeping: AIG(285) removed...
Sweeping: AIG(288) removed...
Sweeping: AIG(290) removed...
Sweeping: AIG(291) removed...
Sweeping: AIG(292) removed...
Sweeping: AIG(293) removed...
Sweeping: AIG(294) removed...
Sweeping: AIG(295) removed...
Sweeping: AIG(296) removed...
Sweeping: AIG(297) removed...
Sweeping: AIG(298) removed...
Sweeping: AIG(299) removed...
Sweeping: AIG(300) removed...
Sweeping: AIG(301) removed...
Sweeping: AIG(302) removed...
Sweeping: AIG(303) removed...
Sweeping: AIG(304) removed...
Sweeping: AIG(305) removed...
Sweeping: AIG(306) removed...
Sweeping: AIG(307) removed...
Sweeping: AIG(308) removed...
Sweeping: AIG(309) removed...
Sweeping: AIG(310) removed...
Sweeping: AIG(311) removed...
Sweeping: AIG(312) removed...
Sweeping: AIG(313) removed...
Sweeping: AIG(314) removed...
Sweeping: AIG(315) removed...
Sweeping: AIG(316) removed...
Sweeping: AIG(317) removed...
Sweeping: AIG(318) removed...
Sweeping: AIG(319) removed...
Sweeping: AIG(320) removed...
Sweeping: AIG(321) removed...
Sweeping: AIG(322) removed...
Sweeping: AIG(323) removed...
Sweeping: AIG(324) removed...
Sweeping: AIG(325) removed...
Sweeping: AIG(326) removed...
Sweeping: AIG(327) removed...
Sweeping: AIG(328) removed...
Sweeping: AIG(329) removed...
Sweeping: AIG(330) removed...
Sweeping: AIG(331) removed...
Sweeping: AIG(332) removed...
Sweeping: AIG(333) removed...
Sweeping: AIG(334) removed...
Sweeping: AIG(335) removed...
Sweeping: AIG(336) removed...
Sweeping: AIG(337) removed...
Sweeping: AIG(338) removed...
Sweeping: AIG(339) removed...
Sweeping: AIG(340) removed...
Sweeping: AIG(341) removed...
Sweeping: AIG(342) removed...
Sweeping: AIG(343) removed...
Sweeping: AIG(344) removed...
Sweeping: AIG(345) removed...
Sweeping: AIG(346) removed...
Sweeping: AIG(347) removed...
Sweeping: AIG(348) removed...
Sweeping: AIG(349) removed...
Sweeping: AIG(350) removed...
Sweeping: AIG(351) removed...
Sweeping: AIG(352) removed...
Sweeping: AIG(353) removed...
Sweeping: AIG(354) removed...
Sweeping: AIG(355) removed...
Sweeping: AIG(356) removed...
Sweeping: AIG(357) removed...
Sweeping: AIG(358) removed...
Sweeping: AIG(359) removed...
Sweeping: AIG(360) removed...
Sweeping: AIG(361) removed...
Sweeping: AIG(362) removed...
Sweeping: AIG(363) removed...
Sweeping: AIG(364) removed...
Sweeping: AIG(365) removed...
Sweeping: AIG(366) removed...
Sweeping: AIG(367) removed...
Sweeping: AIG(368) removed...
Sweeping: AIG(369) removed...
Sweeping: AIG(370) removed...
Sweeping: AIG(371) removed...
Sweeping: AIG(372) removed...
Sweeping: AIG(373) removed...
Sweeping: AIG(374) removed...
Sweeping: AIG(375) removed...
Sweeping: AIG(376) removed...
Sweeping: AIG(377) removed...
Sweeping: AIG(378) removed...
Sweeping: AIG(379) removed...
Sweeping: AIG(380) removed...
Sweeping: AIG(381) removed...
Sweeping: AIG(382) removed...
Sweeping: AIG(383) removed...
Sweeping: AIG(384) removed...
Sweeping: AIG(385) removed...
Sweeping: AIG(386) removed...
Sweeping: AIG(387) removed...
Sweeping: AIG(388) removed...
Sweeping: AIG(389) removed...
Sweeping: AIG(390) removed...
Sweeping: AIG(391) removed...
Sweeping: AIG(392) removed...
Sweeping: AIG(393) removed...
Sweeping: AIG(394) removed...
Sweeping: AIG(395) removed...
Sweeping: AIG(396) removed...
Sweeping: AIG(397) removed...
Sweeping: AIG(398) removed...
Sweeping: AIG(399) removed...
Sweeping: AIG(400) removed...
Sweeping: AIG(401) removed...
Sweeping: AIG(402) removed...
Sweeping: AIG(403) removed...
Sweeping: AIG(404) removed...
Sweeping: AIG(405) removed...
Sweeping: AIG(406) removed...
Sweeping: AIG(407) removed...
Sweeping: AIG(408) removed...
Sweeping: AIG(409) removed...
Sweeping: AIG(410) removed...
Sweeping: AIG(411) removed...
Sweeping: AIG(412) removed...
Sweeping: AIG(413) removed...
Sweeping: AIG(414) removed...
Sweeping: AIG(415) removed...
Sweeping: AIG(416) removed...
Sweeping: AIG(417) removed...
Sweeping: AIG(418) removed...
Sweeping: AIG(419) removed...
Sweeping: AIG(420) removed...
Sweeping: AIG(421) removed...
Sweeping: AIG(422) removed...
Sweeping: AIG(423) removed...
Sweeping: AIG(424) removed...
Sweeping: AIG(425) removed...
Sweeping: AIG(426) removed...
Sweeping: AIG(427) removed...
Sweeping: AIG(428) removed...
Sweeping: AIG(429) removed...
Sweeping: AIG(430) removed...
Sweeping: AIG(431) removed...
Sweeping: AIG(432) removed...
Sweeping: AIG(433) removed...
Sweeping: AIG(434) removed...
Sweeping: AIG(435) removed...
Sweeping: AIG(436) removed...
Sweeping: AIG(437) removed...
Sweeping: AIG(438) removed...
Sweeping: AIG(439) removed...
Sweeping: AIG(440) removed...
Sweeping: AIG(441) removed...
Sweeping: AIG(442) removed...
Sweeping: AIG(443) removed...
Sweeping: AIG(444) removed...
Sweeping: AIG(445) removed...
Sweeping: AIG(446) removed...
Sweeping: AIG(447) removed...
Sweeping: AIG(448) removed...
Sweeping: AIG(449) removed...
Sweeping: AIG(450) removed...
Sweeping: AIG(451) removed...
Sweeping: AIG(452) removed...
Sweeping: AIG(453) removed...
Sweeping: AIG(454) removed...
Sweeping: AIG(455) removed...
Sweeping: AIG(456) removed...
Sweeping: AIG(457) removed...
Sweeping: AIG(458) removed...
Sweeping: AIG(459) removed...
Sweeping: AIG(460) removed...
Sweeping: AIG(461) removed...
Sweeping: AIG(462) removed...
Sweeping: AIG(463) removed...
Sweeping: AIG(464) removed...
Sweeping: AIG(465) removed...
Sweeping: AIG(467) removed...
Sweeping: AIG(468) removed...
Sweeping: AIG(469) removed...
Sweeping: AIG(470) removed...
Sweeping: AIG(471) removed...
Sweeping: AIG(472) removed...
Sweeping: AIG(473) removed...
Sweeping: AIG(474) removed...
Sweeping: AIG(475) removed...
Sweeping: AIG(476) removed...
Sweeping: AIG(477) removed...
Sweeping: AIG(478) removed...
Sweeping: AIG(479) removed...
Sweeping: AIG(480) removed...
Sweeping: AIG(481) removed...
Sweeping: AIG(482) removed...
Sweeping: AIG(483) removed...
Sweeping: AIG(484) removed...
Sweeping: AIG(485) removed...
Sweeping: AIG(486) removed...
Sweeping: AIG(487) removed...
Sweeping: AIG(488) removed...
Sweeping: AIG(489) removed...
Sweeping: AIG(490) removed...
Sweeping: AIG(491) removed...
Sweeping: AIG(492) removed...
Sweeping: AIG(493) removed...
Sweeping: AIG(494) removed...
Sweeping: AIG(495) removed...
Sweeping: AIG(496) removed...
Sweeping: AIG(497) removed...
Sweeping: AIG(498) removed...
Sweeping: AIG(499) removed...
Sweeping: AIG(500) removed...
Sweeping: AIG(501) removed...
Sweeping: AIG(502) removed...
Sweeping: AIG(503) removed...
Sweeping: AIG(504) removed...
Sweeping: AIG(505) removed...
Sweeping: AIG(506) removed...
Sweeping: AIG(507) removed...
Sweeping: AIG(508) removed...
Sweeping: AIG(509) removed...
Sweeping: AIG(510) removed...
Sweeping: AIG(511) removed...
Sweeping: AIG(512) removed...
Sweeping: AIG(513) removed...
Sweeping: AIG(514) removed...
Sweeping: AIG(515) removed...
Sweeping: AIG(516) removed...
Sweeping: AIG(517) removed...
Sweeping: AIG(518) removed...
Sweeping: AIG(519) removed...
Sweeping: AIG(520) removed...
Sweeping: AIG(521) removed...
Sweeping: AIG(522) removed...
Sweeping: AIG(523) removed...
Sweeping: AIG(524) removed...
Sweeping: AIG(525) removed...
Sweeping: AIG(526) removed...
Sweeping: AIG(527) removed...
Sweeping: AIG(528) removed...
Sweeping: AIG(529) removed...
Sweeping: AIG(530) removed...
Sweeping: AIG(531) removed...
Sweeping: AIG(532) removed...
Sweeping: AIG(533) removed...
Sweeping: AIG(534) removed...
Sweeping: AIG(535) removed...
Sweeping: AIG(536) removed...
Sweeping: AIG(537) removed...
Sweeping: AIG(538) removed...
Sweeping: AIG(539) removed...
Sweeping: AIG(540) removed...
Sweeping: AIG(541) removed...
Sweeping: AIG(542) removed...
Sweeping: AIG(543) removed...
Sweeping: AIG(544) removed...
Sweeping: AIG(545) removed...
Sweeping: AIG(546) removed...
Sweeping: AIG(547) removed...
Sweeping: AIG(548) removed...
Sweeping: AIG(549) removed...
Sweeping: AIG(550) removed...
Sweeping: AIG(551) removed...
Sweeping: AIG(552) removed...
Sweeping: AIG(553) removed...
Sweeping: AIG(554) removed...
Sweeping: AIG(555) removed...
Sweeping: AIG(556) removed...
Sweeping: AIG(557) removed...
Sweeping: AIG(558) removed...
Sweeping: AIG(559) removed...
Sweeping: AIG(560) removed...
Sweeping: AIG(561) removed...
Sweeping: AIG(562) removed...
Sweeping: AIG(563) removed...
Sweeping: AIG(564) removed...
Sweeping: AIG(565) removed...
Sweeping: AIG(566) removed...
Sweeping: AIG(567) removed...
Sweeping: AIG(568) removed...
Sweeping: AIG(569) removed...
Sweeping: AIG(570) removed...
Sweeping: AIG(571) removed...
Sweeping: AIG(572) removed...
Sweeping: AIG(573) removed...
Sweeping: AIG(574) removed...
Sweeping: AIG(575) removed...
Sweeping: AIG(576) removed...
Sweeping: AIG(577) removed...
Sweeping: AIG(578) removed...
Sweeping: AIG(579) removed...
Sweeping: AIG(580) removed...
Sweeping: AIG(581) removed...
Sweeping: AIG(582) removed...
Sweeping: AIG(583) removed...
Sweeping: AIG(584) removed...
Sweeping: AIG(585) removed...
Sweeping: AIG(586) removed...
Sweeping: AIG(587) removed...
Sweeping: AIG(588) removed...
Sweeping: AIG(589) removed...
Sweeping: AIG(590) removed...
Sweeping: AIG(591) removed...
Sweeping: AIG(592) removed...
Sweeping: AIG(593) removed...
Sweeping: AIG(594) removed...
Sweeping: AIG(595) removed...
Sweeping: AIG(596) removed...
Sweeping: AIG(597) removed...
Sweeping: AIG(598) removed...
Sweeping: AIG(599) removed...
Sweeping: AIG(600) removed...
Sweeping: AIG(601) removed...
Sweeping: AIG(602) removed...
Sweeping: AIG(603) removed...
Sweeping: AIG(604) removed...
Sweeping: AIG(605) removed...
Sweeping: AIG(606) removed...
Sweeping: AIG(607) removed...
Sweeping: AIG(608) removed...
Sweeping: AIG(609) removed...
Sweeping: AIG(610) removed...
Sweeping: AIG(611) removed...
Sweeping: AIG(612) removed...
Sweeping: AIG(613) removed...
Sweeping: AIG(614) removed...
Sweeping: AIG(615) removed...
Sweeping: AIG(616) removed...
Sweeping: AIG(617) removed...
Sweeping: AIG(618) removed...
Sweeping: AIG(619) removed...
Sweeping: AIG(620) removed...
Sweeping: AIG(621) removed...
Sweeping: AIG(622) removed...
Sweeping: AIG(623) removed...
Sweeping: AIG(624) removed...
Sweeping: AIG(625) removed...
Sweeping: AIG(626) removed...
Sweeping: AIG(627) removed...
Sweeping: AIG(628) removed...
Sweeping: AIG(629) removed...
Sweeping: AIG(630) removed...
Sweeping: AIG(631) removed...
Sweeping: AIG(632) removed...
Sweeping: AIG(633) removed...
Sweeping: AIG(634) removed...
Sweeping: AIG(635) removed...
Sweeping: AIG(636) removed...
Sweeping: AIG(637) removed...
Sweeping: AIG(638) removed...
Sweeping: AIG(639) removed...
Sweeping: AIG(640) removed...
Sweeping: AIG(641) removed...
Sweeping: AIG(642) removed...
Sweeping: AIG(643) removed...
Sweeping: AIG(644) removed...
Sweeping: AIG(645) removed...
Sweeping: AIG(646) removed...
Sweeping: AIG(647) removed...
Sweeping: AIG(648) removed...
Sweeping: AIG(649) removed...
Sweeping: AIG(650) removed...
Sweeping: AIG(651) removed...
Sweeping: AIG(652) removed...
Sweeping: AIG(653) removed...
Sweeping: AIG(654) removed...
Sweeping: AIG(655) removed...
Sweeping: AIG(656) removed...
Sweeping: AIG(657) removed...
Sweeping: AIG(658) removed...
Sweeping: AIG(659) removed...
Sweeping: AIG(660) removed...
Sweeping: AIG(661) removed...
Sweeping: AIG(662) removed...
Sweeping: AIG(663) removed...
Sweeping: AIG(664) removed...
Sweeping: AIG(665) removed...
Sweeping: AIG(666) removed...
Sweeping: AIG(667) removed...
Sweeping: AIG(668) removed...
Sweeping: AIG(669) removed...
Sweeping: AIG(670) removed...
Sweeping: AIG(671) removed...
Sweeping: AIG(672) removed...
Sweeping: AIG(673) removed...
Sweeping: AIG(674) removed...
Sweeping: AIG(675) removed...
Sweeping: AIG(676) removed...
Sweeping: AIG(677) removed...
Sweeping: AIG(678) removed...
Sweeping: AIG(679) removed...
Sweeping: AIG(680) removed...
Sweeping: AIG(681) removed...
Sweeping: AIG(682) removed...
Sweeping: AIG(683) removed...
Sweeping: AIG(684) removed...
Sweeping: AIG(685) removed...
Sweeping: AIG(686) removed...
Sweeping: AIG(687) removed...
Sweeping: AIG(688) removed...
Sweeping: AIG(689) removed...
Sweeping: AIG(690) removed...
Sweeping: AIG(691) removed...
Sweeping: AIG(692) removed...
Sweeping: AIG(693) removed...
Sweeping: AIG(694) removed...
Sweeping: AIG(695) removed...
Sweeping: AIG(696) removed...
Sweeping: AIG(697) removed...
Sweeping: AIG(698) removed...
Sweeping: AIG(699) removed...
Sweeping: AIG(700) removed...
Sweeping: AIG(701) removed...
Sweeping: AIG(702) removed...
Sweeping: AIG(703) removed...
Sweeping: AIG(704) removed...
Sweeping: AIG(705) removed...
Sweeping: AIG(706) removed...
Sweeping: AIG(707) removed...
Sweeping: AIG(708) removed...
Sweeping: AIG(709) removed...
Sweeping: AIG(710) removed...
Sweeping: AIG(711) removed...
Sweeping: AIG(712) removed...
Sweeping: AIG(713) removed...
Sweeping: AIG(714) removed...
Sweeping: AIG(715) removed...
Sweeping: AIG(716) removed...
Sweeping: AIG(717) removed...
Sweeping: AIG(718) removed...
Sweeping: AIG(719) removed...
Sweeping: AIG(720) removed...
Sweeping: AIG(721) removed...
Sweeping: AIG(722) removed...
Sweeping: AIG(723) removed...
Sweeping: AIG(724) removed...
Sweeping: AIG(725) removed...
Sweeping: AIG(726) removed...
Sweeping: AIG(727) removed...
Sweeping: AIG(728) removed...
Sweeping: AIG(729) removed...
Sweeping: AIG(730) removed...
Sweeping: AIG(731) removed...
Sweeping: AIG(732) removed...
Sweeping: AIG(733) removed...
Sweeping: AIG(734) removed...
Sweeping: AIG(735) removed...
Sweeping: AIG(736) removed...
Sweeping: AIG(737) removed...
Sweeping: AIG(738) removed...
Sweeping: AIG(739) removed...
Sweeping: AIG(740) removed...
Sweeping: AIG(741) removed...
Sweeping: AIG(742) removed...
Sweeping: AIG(743) removed...
Sweeping: AIG(744) removed...
Sweeping: AIG(745) removed...
Sweeping: AIG(746) removed...
Sweeping: AIG(747) removed...
Sweeping: AIG(748) removed...
Sweeping: AIG(749) removed...
Sweeping: AIG(750) removed...
Sweeping: AIG(751) removed...
Sweeping: AIG(752) removed...
Sweeping: AIG(753) removed...
Sweeping: AIG(754) removed...
Sweeping: AIG(755) removed...
Sweeping: AIG(756) removed...
Sweeping: AIG(757) removed...
Sweeping: AIG(758) removed...
Sweeping: AIG(759) removed...
Sweeping: AIG(760) removed...
Sweeping: AIG(761) removed...
Sweeping: AIG(762) removed...
Sweeping: AIG(763) removed...
Sweeping: AIG(764) removed...
Sweeping: AIG(765) removed...
Sweeping: AIG(766) removed...
Sweeping: AIG(767) removed...
Sweeping: AIG(768) removed...
Sweeping: AIG(769) removed...
Sweeping: AIG(770) removed...
Sweeping: AIG(771) removed...
Sweeping: AIG(772) removed...
Sweeping: AIG(773) removed...
Sweeping: AIG(774) removed...
Sweeping: AIG(775) removed...
Sweeping: AIG(776) removed...
Sweeping: AIG(777) removed...
Sweeping: AIG(778) removed...
Sweeping: AIG(779) removed...
Sweeping: AIG(780) removed...
Sweeping: AIG(781) removed...
Sweeping: AIG(782) removed...
Sweeping: AIG(783) removed...
Sweeping: AIG(784) removed...
Sweeping: AIG(785) removed...
Sweeping: AIG(786) removed...
Sweeping: AIG(787) removed...
Sweeping: AIG(788) removed...
Sweeping: AIG(789) removed...
Sweeping: AIG(790) removed...
Sweeping: AIG(791) removed...
Sweeping: AIG(792) removed...
Sweeping: AIG(793) removed...
Sweeping: AIG(794) removed...
Sweeping: AIG(795) removed...
Sweeping: AIG(796) removed...
Sweeping: AIG(797) removed...
Sweeping: AIG(798) removed...
Sweeping: AIG(799) removed...
Sweeping: AIG(800) removed...
Sweeping: AIG(801) removed...
Sweeping: AIG(802) removed...
Sweeping: AIG(803) removed...
Sweeping: AIG(804) removed...
Sweeping: AIG(805) removed...
Sweeping: AIG(806) removed...
Sweeping: AIG(807) removed...
Sweeping: AIG(808) removed...
Sweeping: AIG(809) removed...
Sweeping: AIG(810) removed...
Sweeping: AIG(811) removed...
Sweeping: AIG(812) removed...
Sweeping: AIG(813) removed...
Sweeping: AIG(814) removed...
Sweeping: AIG(815) removed...
Sweeping: AIG(816) removed...
Sweeping: AIG(817) removed...
Sweeping: AIG(818) removed...
Sweeping: AIG(819) removed...
Sweeping: AIG(820) removed...
Sweeping: AIG(821) removed...
Sweeping: AIG(822) removed...
Sweeping: AIG(823) removed...
Sweeping: AIG(824) removed...
Sweeping: AIG(825) removed...
Sweeping: AIG(826) removed...
Sweeping: AIG(827) removed...
Sweeping: AIG(828) removed...
Sweeping: AIG(829) removed...
Sweeping: AIG(830) removed...
Sweeping: AIG(831) removed...
Sweeping: AIG(832) removed...
Sweeping: AIG(833) removed...
Sweeping: AIG(834) removed...
Sweeping: AIG(835) removed...
Sweeping: AIG(836) removed...
Sweeping: AIG(837) removed...
Sweeping: AIG(838) removed...
Sweeping: AIG(839) removed...
Sweeping: AIG(840) removed...
Sweeping: AIG(841) removed...
Sweeping: AIG(842) removed...
Sweeping: AIG(843) removed...
Sweeping: AIG(844) removed...
Sweeping: AIG(845) removed...
Sweeping: AIG(846) removed...
Sweeping: AIG(847) removed...
Sweeping: AIG(848) removed...
Sweeping: AIG(849) removed...
Sweeping: AIG(850) removed...
Sweeping: AIG(851) removed...
Sweeping: AIG(852) removed...
Sweeping: AIG(853) removed...
Sweeping: AIG(854) removed...
Sweeping: AIG(855) removed...
Sweeping: AIG(856) removed...
Sweeping: AIG(857) removed...
Sweeping: AIG(858) removed...
Sweeping: AIG(859) removed...
Sweeping: AIG(860) removed...
Sweeping: AIG(861) removed...
Sweeping: AIG(862) removed...
Sweeping: AIG(863) removed...
Sweeping: AIG(864) removed...
Sweeping: AIG(865) removed...
Sweeping: AIG(866) removed...
Sweeping: AIG(867) removed...
Sweeping: AIG(868) removed...
Sweeping: AIG(869) removed...
Sweeping: AIG(870) removed...
Sweeping: AIG(871) removed...
Sweeping: AIG(872) removed...
Sweeping: AIG(873) removed...
Sweeping: AIG(874) removed...
Sweeping: AIG(875) removed...
Sweeping: AIG(876) removed...
Sweeping: AIG(877) removed...
Sweeping: AIG(878) removed...
Sweeping: AIG(879) removed...
Sweeping: AIG(880) removed...
Sweeping: AIG(881) removed...
Sweeping: AIG(882) removed...
Sweeping: AIG(883) removed...
Sweeping: AIG(884) removed...
Sweeping: AIG(885) removed...
Sweeping: AIG(886) removed...
Sweeping: AIG(887) removed...
Sweeping: AIG(888) removed...
Sweeping: AIG(889) removed...
Sweeping: AIG(890) removed...
Sweeping: AIG(891) removed...
Sweeping: AIG(892) removed...
Sweeping: AIG(893) removed...
Sweeping: AIG(894) removed...
Sweeping: AIG(895) removed...
Sweeping: AIG(896) removed...
Sweeping: AIG(897) removed...
Sweeping: AIG(898) removed...
Sweeping: AIG(899) removed...
Sweeping: AIG(900) removed...
Sweeping: AIG(901) removed...
Sweeping: AIG(902) removed...
Sweeping: AIG(903) removed...
Sweeping: AIG(904) removed...
Sweeping: AIG(905) removed...
Sweeping: AIG(906) removed...
Sweeping: AIG(907) removed...
Sweeping: AIG(908) removed...
Sweeping: AIG(909) removed...
Sweeping: AIG(910) removed...
Sweeping: AIG(911) removed...
Sweeping: AIG(912) removed...
Sweeping: AIG(913) removed...
Sweeping: AIG(914) removed...
Sweeping: AIG(915) removed...
Sweeping: AIG(916) removed...
Sweeping: AIG(917) removed...
Sweeping: AIG(918) removed...
Sweeping: AIG(919) removed...
Sweeping: AIG(920) removed...
Sweeping: AIG(921) removed...
Sweeping: AIG(922) removed...
Sweeping: AIG(923) removed...
Sweeping: AIG(924) removed...
Sweeping: AIG(925) removed...
Sweeping: AIG(926) removed...
Sweeping: AIG(927) removed...

fraig> ciropt

fraig> cirstra

fraig> cirsw

fraig> ciropt

fraig> cirstra

fraig> cirsw

fraig> ciropt

fraig> cirstra

fraig> cirsw

fraig> ciropt

fraig> cirstra

fraig> cirp -Sum

Circuit Statistics
==================
  PI          41
  PO           1
  AIG          0
------------------
  Total       42

fraig> q -f

