fraig> cirmiter tests.fraig/sim08.aag myAag/my8.aag

fraig> cirsw

fraig> ciropt
Simplifying: 0 merging 18...
Simplifying: 6 merging !19...
Simplifying: 6 merging 20...
Simplifying: 0 merging 21...
Simplifying: 7 merging !22...
Simplifying: 7 merging 23...

fraig> cirstra
Strashing: 4 merging 3...
Strashing: 6 merging 7...

fraig> cirsw

fraig> ciropt

fraig> cirstra

fraig> cirsw

fraig> ciropt

fraig> cirstra

fraig> cirsw

fraig> ciropt

fraig> cirstra

fraig> cirsim -r
MAX_FAILS = 3
Total #FEC Group = 0                              Total #FEC Group = 1                              Total #FEC Group = 1                              Total #FEC Group = 1                              Total #FEC Group = 1                              128 patterns simulated.

fraig> cirf
                                   Proving 6 = 1...UNSAT!!                                   Fraig: 0 merging 6...
Updating by UNSAT... Total #FEC Group = 0

fraig> cirsw
Sweeping: AIG(4) removed...
Sweeping: AIG(5) removed...

fraig> ciropt

fraig> cirstra

fraig> cirsw

fraig> ciropt

fraig> cirstra

fraig> cirsw

fraig> ciropt

fraig> cirstra

fraig> cirsw

fraig> ciropt

fraig> cirstra

fraig> cirp -Sum

Circuit Statistics
==================
  PI           2
  PO           2
  AIG          0
------------------
  Total        4

fraig> q -f

