fraig> cirmiter tests.fraig/sim10.aag myAag/my10.aag

fraig> cirsw

fraig> ciropt
Simplifying: 46 merging !47...
Simplifying: 25 merging !26...
Simplifying: 21 merging !22...
Simplifying: 17 merging !18...
Simplifying: 13 merging !14...
Simplifying: 9 merging !10...
Simplifying: 5 merging !6...
Simplifying: 64 merging !65...
Simplifying: 36 merging !37...
Simplifying: 104 merging 233...
Simplifying: 263 merging 588...
Simplifying: 276 merging !337...
Simplifying: 410 merging 502...
Simplifying: 261 merging !586...
Simplifying: 336 merging !587...
Simplifying: 530 merging !531...
Simplifying: 530 merging !532...
Simplifying: 253 merging !544...
Simplifying: 345 merging !539...
Simplifying: 7 merging 540...
Simplifying: 527 merging 534...
Simplifying: 537 merging 538...
Simplifying: 515 merging 584...
Simplifying: 46 merging !167...
Simplifying: 46 merging !168...
Simplifying: 46 merging !169...
Simplifying: 2 merging !108...
Simplifying: 2 merging !109...
Simplifying: 24 merging !142...
Simplifying: 24 merging !143...
Simplifying: 25 merging !144...
Simplifying: 25 merging !145...
Simplifying: 25 merging !146...
Simplifying: 20 merging !136...
Simplifying: 20 merging !137...
Simplifying: 21 merging !138...
Simplifying: 21 merging !139...
Simplifying: 21 merging !140...
Simplifying: 16 merging !130...
Simplifying: 16 merging !131...
Simplifying: 17 merging !132...
Simplifying: 17 merging !133...
Simplifying: 17 merging !134...
Simplifying: 12 merging !124...
Simplifying: 12 merging !125...
Simplifying: 13 merging !126...
Simplifying: 13 merging !127...
Simplifying: 13 merging !128...
Simplifying: 8 merging !118...
Simplifying: 8 merging !119...
Simplifying: 9 merging !120...
Simplifying: 9 merging !121...
Simplifying: 9 merging !122...
Simplifying: 4 merging !112...
Simplifying: 4 merging !113...
Simplifying: 5 merging !114...
Simplifying: 5 merging !115...
Simplifying: 5 merging !116...
Simplifying: 64 merging !186...
Simplifying: 64 merging !187...
Simplifying: 64 merging !188...
Simplifying: 36 merging !156...
Simplifying: 36 merging !157...
Simplifying: 36 merging !158...
Simplifying: 1 merging !106...
Simplifying: 1 merging !107...
Simplifying: 3 merging !110...
Simplifying: 3 merging !111...
Simplifying: 227 merging 280...
Simplifying: 317 merging 704...
Simplifying: 360 merging !441...
Simplifying: 360 merging !442...
Simplifying: 265 merging !319...
Simplifying: 265 merging !320...
Simplifying: 261 merging !314...
Simplifying: 261 merging !315...
Simplifying: 257 merging !309...
Simplifying: 257 merging !310...
Simplifying: 253 merging !304...
Simplifying: 253 merging !305...
Simplifying: 249 merging !299...
Simplifying: 249 merging !300...
Simplifying: 245 merging !294...
Simplifying: 245 merging !295...
Simplifying: 241 merging !289...
Simplifying: 241 merging !290...
Simplifying: 232 merging !278...
Simplifying: 232 merging !279...
Simplifying: 237 merging !284...
Simplifying: 237 merging !285...
Simplifying: 331 merging !414...
Simplifying: 370 merging !453...
Simplifying: 370 merging !454...
Simplifying: 365 merging !447...
Simplifying: 365 merging !448...
Simplifying: 355 merging !435...
Simplifying: 355 merging !436...
Simplifying: 350 merging !429...
Simplifying: 350 merging !430...
Simplifying: 345 merging !423...
Simplifying: 345 merging !424...
Simplifying: 341 merging !418...
Simplifying: 341 merging !419...
Simplifying: 336 merging !412...
Simplifying: 336 merging !413...
Simplifying: 382 merging !466...
Simplifying: 382 merging !467...
Simplifying: 495 merging 621...
Simplifying: 261 merging !702...
Simplifying: 336 merging !703...
Simplifying: 649 merging 650...
Simplifying: 253 merging !661...
Simplifying: 345 merging !656...
Simplifying: 117 merging 657...
Simplifying: 646 merging 652...
Simplifying: 634 merging 700...
Simplifying: 579 merging 580...
Simplifying: 521 merging 533...
Simplifying: 640 merging 651...
Simplifying: 609 merging 610...
Simplifying: 582 merging 583...
Simplifying: 614 merging 615...
Simplifying: 725 merging 726...
Simplifying: 698 merging 699...
Simplifying: 410 merging 411...
Simplifying: 495 merging 496...
Simplifying: 104 merging 105...
Simplifying: 227 merging 228...
Simplifying: 276 merging !277...
Simplifying: 331 merging !332...
Simplifying: 751 merging 752...
Simplifying: 751 merging !1506...
Simplifying: 0 merging 1507...
Simplifying: 751 merging 1508...

fraig> cirstra
Strashing: 90 merging 56...
Strashing: 82 merging 48...
Strashing: 66 merging 28...
Strashing: 74 merging 38...
Strashing: 559 merging 551...
Strashing: 27 merging 147...
Strashing: 23 merging 141...
Strashing: 19 merging 135...
Strashing: 15 merging 129...
Strashing: 11 merging 123...
Strashing: 7 merging 117...
Strashing: 90 merging 213...
Strashing: 91 merging 214...
Strashing: 92 merging 215...
Strashing: 93 merging 216...
Strashing: 94 merging 217...
Strashing: 95 merging 218...
Strashing: 96 merging 219...
Strashing: 97 merging 220...
Strashing: 82 merging 205...
Strashing: 83 merging 206...
Strashing: 84 merging 207...
Strashing: 85 merging 208...
Strashing: 86 merging 209...
Strashing: 87 merging 210...
Strashing: 88 merging 211...
Strashing: 89 merging 212...
Strashing: 74 merging 197...
Strashing: 75 merging 198...
Strashing: 76 merging 199...
Strashing: 77 merging 200...
Strashing: 78 merging 201...
Strashing: 79 merging 202...
Strashing: 80 merging 203...
Strashing: 81 merging 204...
Strashing: 66 merging 189...
Strashing: 67 merging 190...
Strashing: 68 merging 191...
Strashing: 69 merging 192...
Strashing: 70 merging 193...
Strashing: 71 merging 194...
Strashing: 72 merging 195...
Strashing: 73 merging 196...
Strashing: 90 merging 178...
Strashing: 57 merging 179...
Strashing: 58 merging 180...
Strashing: 59 merging 181...
Strashing: 60 merging 182...
Strashing: 61 merging 183...
Strashing: 62 merging 184...
Strashing: 63 merging 185...
Strashing: 82 merging 170...
Strashing: 49 merging 171...
Strashing: 50 merging 172...
Strashing: 51 merging 173...
Strashing: 52 merging 174...
Strashing: 53 merging 175...
Strashing: 54 merging 176...
Strashing: 55 merging 177...
Strashing: 66 merging 148...
Strashing: 29 merging 149...
Strashing: 30 merging 150...
Strashing: 31 merging 151...
Strashing: 32 merging 152...
Strashing: 33 merging 153...
Strashing: 34 merging 154...
Strashing: 35 merging 155...
Strashing: 74 merging 159...
Strashing: 39 merging 160...
Strashing: 40 merging 161...
Strashing: 41 merging 162...
Strashing: 42 merging 163...
Strashing: 43 merging 164...
Strashing: 44 merging 165...
Strashing: 45 merging 166...
Strashing: 98 merging 221...
Strashing: 99 merging 222...
Strashing: 100 merging 223...
Strashing: 101 merging 224...
Strashing: 102 merging 225...
Strashing: 103 merging 226...
Strashing: 104 merging 227...
Strashing: 262 merging 316...
Strashing: 263 merging 317...
Strashing: 266 merging 321...
Strashing: 267 merging 322...
Strashing: 268 merging 323...
Strashing: 264 merging 318...
Strashing: 258 merging 311...
Strashing: 259 merging 312...
Strashing: 260 merging 313...
Strashing: 254 merging 306...
Strashing: 255 merging 307...
Strashing: 256 merging 308...
Strashing: 250 merging 301...
Strashing: 251 merging 302...
Strashing: 252 merging 303...
Strashing: 246 merging 296...
Strashing: 247 merging 297...
Strashing: 248 merging 298...
Strashing: 242 merging 291...
Strashing: 243 merging 292...
Strashing: 244 merging 293...
Strashing: 234 merging 281...
Strashing: 235 merging 282...
Strashing: 236 merging 283...
Strashing: 238 merging 286...
Strashing: 239 merging 287...
Strashing: 240 merging 288...
Strashing: 269 merging 324...
Strashing: 270 merging 325...
Strashing: 271 merging 326...
Strashing: 272 merging 327...
Strashing: 273 merging 328...
Strashing: 274 merging 329...
Strashing: 275 merging 330...
Strashing: 276 merging 331...
Strashing: 371 merging 455...
Strashing: 372 merging 456...
Strashing: 373 merging 457...
Strashing: 366 merging 449...
Strashing: 367 merging 450...
Strashing: 368 merging 451...
Strashing: 369 merging 452...
Strashing: 361 merging 443...
Strashing: 362 merging 444...
Strashing: 363 merging 445...
Strashing: 364 merging 446...
Strashing: 356 merging 437...
Strashing: 357 merging 438...
Strashing: 358 merging 439...
Strashing: 359 merging 440...
Strashing: 351 merging 431...
Strashing: 352 merging 432...
Strashing: 353 merging 433...
Strashing: 354 merging 434...
Strashing: 346 merging 425...
Strashing: 347 merging 426...
Strashing: 348 merging 427...
Strashing: 349 merging 428...
Strashing: 342 merging 420...
Strashing: 343 merging 421...
Strashing: 344 merging 422...
Strashing: 338 merging 415...
Strashing: 339 merging 416...
Strashing: 340 merging 417...
Strashing: 399 merging 484...
Strashing: 400 merging 485...
Strashing: 401 merging 486...
Strashing: 402 merging 487...
Strashing: 403 merging 488...
Strashing: 404 merging 489...
Strashing: 405 merging 490...
Strashing: 406 merging 491...
Strashing: 407 merging 492...
Strashing: 391 merging 476...
Strashing: 392 merging 477...
Strashing: 393 merging 478...
Strashing: 394 merging 479...
Strashing: 395 merging 480...
Strashing: 396 merging 481...
Strashing: 397 merging 482...
Strashing: 398 merging 483...
Strashing: 374 merging 458...
Strashing: 375 merging 459...
Strashing: 376 merging 460...
Strashing: 377 merging 461...
Strashing: 378 merging 462...
Strashing: 379 merging 463...
Strashing: 380 merging 464...
Strashing: 381 merging 465...
Strashing: 383 merging 468...
Strashing: 384 merging 469...
Strashing: 385 merging 470...
Strashing: 386 merging 471...
Strashing: 387 merging 472...
Strashing: 388 merging 473...
Strashing: 389 merging 474...
Strashing: 390 merging 475...
Strashing: 408 merging 493...
Strashing: 409 merging 494...
Strashing: 410 merging 495...
Strashing: 518 merging 637...
Strashing: 517 merging 636...
Strashing: 516 merging 635...
Strashing: 519 merging 638...
Strashing: 520 merging 639...
Strashing: 521 merging 640...
Strashing: 576 merging 693...
Strashing: 575 merging 692...
Strashing: 577 merging 694...
Strashing: 578 merging 695...
Strashing: 601 merging 717...
Strashing: 602 merging 718...
Strashing: 603 merging 719...
Strashing: 604 merging 720...
Strashing: 597 merging 713...
Strashing: 598 merging 714...
Strashing: 599 merging 715...
Strashing: 600 merging 716...
Strashing: 593 merging 709...
Strashing: 594 merging 710...
Strashing: 595 merging 711...
Strashing: 596 merging 712...
Strashing: 589 merging 705...
Strashing: 590 merging 706...
Strashing: 591 merging 707...
Strashing: 592 merging 708...
Strashing: 524 merging 643...
Strashing: 523 merging 642...
Strashing: 522 merging 641...
Strashing: 525 merging 644...
Strashing: 526 merging 645...
Strashing: 527 merging 646...
Strashing: 506 merging 625...
Strashing: 505 merging 624...
Strashing: 504 merging 623...
Strashing: 507 merging 626...
Strashing: 508 merging 627...
Strashing: 509 merging 628...
Strashing: 512 merging 631...
Strashing: 511 merging 630...
Strashing: 510 merging 629...
Strashing: 513 merging 632...
Strashing: 514 merging 633...
Strashing: 515 merging 634...
Strashing: 528 merging 647...
Strashing: 529 merging 648...
Strashing: 530 merging 649...
Strashing: 559 merging 676...
Strashing: 555 merging 672...
Strashing: 559 merging 668...
Strashing: 552 merging 669...
Strashing: 535 merging 653...
Strashing: 585 merging 701...
Strashing: 503 merging 622...
Strashing: 500 merging 619...
Strashing: 501 merging 620...
Strashing: 616 merging 731...
Strashing: 617 merging 732...
Strashing: 497 merging 498...
Strashing: 229 merging 230...
Strashing: 333 merging 334...

fraig> cirsw

fraig> ciropt
Simplifying: 530 merging !737...
Simplifying: 530 merging 738...
Simplifying: 0 merging 739...
Simplifying: 0 merging 497...
Simplifying: 0 merging !499...
Simplifying: 0 merging 229...
Simplifying: 0 merging !231...
Simplifying: 0 merging 333...
Simplifying: 0 merging !335...
Simplifying: 0 merging !746...
Simplifying: 0 merging !747...
Simplifying: 736 merging 748...
Simplifying: 0 merging 749...
Simplifying: 0 merging 750...
Simplifying: 0 merging 751...

fraig> cirstra

fraig> cirsw
Sweeping: AIG(7) removed...
Sweeping: AIG(11) removed...
Sweeping: AIG(15) removed...
Sweeping: AIG(19) removed...
Sweeping: AIG(23) removed...
Sweeping: AIG(27) removed...
Sweeping: AIG(29) removed...
Sweeping: AIG(30) removed...
Sweeping: AIG(31) removed...
Sweeping: AIG(32) removed...
Sweeping: AIG(33) removed...
Sweeping: AIG(34) removed...
Sweeping: AIG(35) removed...
Sweeping: AIG(39) removed...
Sweeping: AIG(40) removed...
Sweeping: AIG(41) removed...
Sweeping: AIG(42) removed...
Sweeping: AIG(43) removed...
Sweeping: AIG(44) removed...
Sweeping: AIG(45) removed...
Sweeping: AIG(49) removed...
Sweeping: AIG(50) removed...
Sweeping: AIG(51) removed...
Sweeping: AIG(52) removed...
Sweeping: AIG(53) removed...
Sweeping: AIG(54) removed...
Sweeping: AIG(55) removed...
Sweeping: AIG(57) removed...
Sweeping: AIG(58) removed...
Sweeping: AIG(59) removed...
Sweeping: AIG(60) removed...
Sweeping: AIG(61) removed...
Sweeping: AIG(62) removed...
Sweeping: AIG(63) removed...
Sweeping: AIG(66) removed...
Sweeping: AIG(67) removed...
Sweeping: AIG(68) removed...
Sweeping: AIG(69) removed...
Sweeping: AIG(70) removed...
Sweeping: AIG(71) removed...
Sweeping: AIG(72) removed...
Sweeping: AIG(73) removed...
Sweeping: AIG(74) removed...
Sweeping: AIG(75) removed...
Sweeping: AIG(76) removed...
Sweeping: AIG(77) removed...
Sweeping: AIG(78) removed...
Sweeping: AIG(79) removed...
Sweeping: AIG(80) removed...
Sweeping: AIG(81) removed...
Sweeping: AIG(82) removed...
Sweeping: AIG(83) removed...
Sweeping: AIG(84) removed...
Sweeping: AIG(85) removed...
Sweeping: AIG(86) removed...
Sweeping: AIG(87) removed...
Sweeping: AIG(88) removed...
Sweeping: AIG(89) removed...
Sweeping: AIG(90) removed...
Sweeping: AIG(91) removed...
Sweeping: AIG(92) removed...
Sweeping: AIG(93) removed...
Sweeping: AIG(94) removed...
Sweeping: AIG(95) removed...
Sweeping: AIG(96) removed...
Sweeping: AIG(97) removed...
Sweeping: AIG(98) removed...
Sweeping: AIG(99) removed...
Sweeping: AIG(100) removed...
Sweeping: AIG(101) removed...
Sweeping: AIG(102) removed...
Sweeping: AIG(103) removed...
Sweeping: AIG(104) removed...
Sweeping: AIG(234) removed...
Sweeping: AIG(235) removed...
Sweeping: AIG(236) removed...
Sweeping: AIG(238) removed...
Sweeping: AIG(239) removed...
Sweeping: AIG(240) removed...
Sweeping: AIG(242) removed...
Sweeping: AIG(243) removed...
Sweeping: AIG(244) removed...
Sweeping: AIG(246) removed...
Sweeping: AIG(247) removed...
Sweeping: AIG(248) removed...
Sweeping: AIG(250) removed...
Sweeping: AIG(251) removed...
Sweeping: AIG(252) removed...
Sweeping: AIG(254) removed...
Sweeping: AIG(255) removed...
Sweeping: AIG(256) removed...
Sweeping: AIG(258) removed...
Sweeping: AIG(259) removed...
Sweeping: AIG(260) removed...
Sweeping: AIG(262) removed...
Sweeping: AIG(263) removed...
Sweeping: AIG(264) removed...
Sweeping: AIG(266) removed...
Sweeping: AIG(267) removed...
Sweeping: AIG(268) removed...
Sweeping: AIG(269) removed...
Sweeping: AIG(270) removed...
Sweeping: AIG(271) removed...
Sweeping: AIG(272) removed...
Sweeping: AIG(273) removed...
Sweeping: AIG(274) removed...
Sweeping: AIG(275) removed...
Sweeping: AIG(276) removed...
Sweeping: AIG(338) removed...
Sweeping: AIG(339) removed...
Sweeping: AIG(340) removed...
Sweeping: AIG(342) removed...
Sweeping: AIG(343) removed...
Sweeping: AIG(344) removed...
Sweeping: AIG(346) removed...
Sweeping: AIG(347) removed...
Sweeping: AIG(348) removed...
Sweeping: AIG(349) removed...
Sweeping: AIG(351) removed...
Sweeping: AIG(352) removed...
Sweeping: AIG(353) removed...
Sweeping: AIG(354) removed...
Sweeping: AIG(356) removed...
Sweeping: AIG(357) removed...
Sweeping: AIG(358) removed...
Sweeping: AIG(359) removed...
Sweeping: AIG(361) removed...
Sweeping: AIG(362) removed...
Sweeping: AIG(363) removed...
Sweeping: AIG(364) removed...
Sweeping: AIG(366) removed...
Sweeping: AIG(367) removed...
Sweeping: AIG(368) removed...
Sweeping: AIG(369) removed...
Sweeping: AIG(371) removed...
Sweeping: AIG(372) removed...
Sweeping: AIG(373) removed...
Sweeping: AIG(374) removed...
Sweeping: AIG(375) removed...
Sweeping: AIG(376) removed...
Sweeping: AIG(377) removed...
Sweeping: AIG(378) removed...
Sweeping: AIG(379) removed...
Sweeping: AIG(380) removed...
Sweeping: AIG(381) removed...
Sweeping: AIG(383) removed...
Sweeping: AIG(384) removed...
Sweeping: AIG(385) removed...
Sweeping: AIG(386) removed...
Sweeping: AIG(387) removed...
Sweeping: AIG(388) removed...
Sweeping: AIG(389) removed...
Sweeping: AIG(390) removed...
Sweeping: AIG(391) removed...
Sweeping: AIG(392) removed...
Sweeping: AIG(393) removed...
Sweeping: AIG(394) removed...
Sweeping: AIG(395) removed...
Sweeping: AIG(396) removed...
Sweeping: AIG(397) removed...
Sweeping: AIG(398) removed...
Sweeping: AIG(399) removed...
Sweeping: AIG(400) removed...
Sweeping: AIG(401) removed...
Sweeping: AIG(402) removed...
Sweeping: AIG(403) removed...
Sweeping: AIG(404) removed...
Sweeping: AIG(405) removed...
Sweeping: AIG(406) removed...
Sweeping: AIG(407) removed...
Sweeping: AIG(408) removed...
Sweeping: AIG(409) removed...
Sweeping: AIG(410) removed...
Sweeping: AIG(500) removed...
Sweeping: AIG(501) removed...
Sweeping: AIG(503) removed...
Sweeping: AIG(504) removed...
Sweeping: AIG(505) removed...
Sweeping: AIG(506) removed...
Sweeping: AIG(507) removed...
Sweeping: AIG(508) removed...
Sweeping: AIG(509) removed...
Sweeping: AIG(510) removed...
Sweeping: AIG(511) removed...
Sweeping: AIG(512) removed...
Sweeping: AIG(513) removed...
Sweeping: AIG(514) removed...
Sweeping: AIG(515) removed...
Sweeping: AIG(516) removed...
Sweeping: AIG(517) removed...
Sweeping: AIG(518) removed...
Sweeping: AIG(519) removed...
Sweeping: AIG(520) removed...
Sweeping: AIG(521) removed...
Sweeping: AIG(522) removed...
Sweeping: AIG(523) removed...
Sweeping: AIG(524) removed...
Sweeping: AIG(525) removed...
Sweeping: AIG(526) removed...
Sweeping: AIG(527) removed...
Sweeping: AIG(528) removed...
Sweeping: AIG(529) removed...
Sweeping: AIG(530) removed...
Sweeping: AIG(535) removed...
Sweeping: AIG(536) removed...
Sweeping: AIG(537) removed...
Sweeping: AIG(541) removed...
Sweeping: AIG(542) removed...
Sweeping: AIG(543) removed...
Sweeping: AIG(545) removed...
Sweeping: AIG(546) removed...
Sweeping: AIG(547) removed...
Sweeping: AIG(548) removed...
Sweeping: AIG(549) removed...
Sweeping: AIG(550) removed...
Sweeping: AIG(552) removed...
Sweeping: AIG(553) removed...
Sweeping: AIG(554) removed...
Sweeping: AIG(555) removed...
Sweeping: AIG(556) removed...
Sweeping: AIG(557) removed...
Sweeping: AIG(558) removed...
Sweeping: AIG(559) removed...
Sweeping: AIG(560) removed...
Sweeping: AIG(561) removed...
Sweeping: AIG(562) removed...
Sweeping: AIG(563) removed...
Sweeping: AIG(564) removed...
Sweeping: AIG(565) removed...
Sweeping: AIG(566) removed...
Sweeping: AIG(567) removed...
Sweeping: AIG(568) removed...
Sweeping: AIG(569) removed...
Sweeping: AIG(570) removed...
Sweeping: AIG(571) removed...
Sweeping: AIG(572) removed...
Sweeping: AIG(573) removed...
Sweeping: AIG(574) removed...
Sweeping: AIG(575) removed...
Sweeping: AIG(576) removed...
Sweeping: AIG(577) removed...
Sweeping: AIG(578) removed...
Sweeping: AIG(579) removed...
Sweeping: AIG(581) removed...
Sweeping: AIG(582) removed...
Sweeping: AIG(585) removed...
Sweeping: AIG(589) removed...
Sweeping: AIG(590) removed...
Sweeping: AIG(591) removed...
Sweeping: AIG(592) removed...
Sweeping: AIG(593) removed...
Sweeping: AIG(594) removed...
Sweeping: AIG(595) removed...
Sweeping: AIG(596) removed...
Sweeping: AIG(597) removed...
Sweeping: AIG(598) removed...
Sweeping: AIG(599) removed...
Sweeping: AIG(600) removed...
Sweeping: AIG(601) removed...
Sweeping: AIG(602) removed...
Sweeping: AIG(603) removed...
Sweeping: AIG(604) removed...
Sweeping: AIG(605) removed...
Sweeping: AIG(606) removed...
Sweeping: AIG(607) removed...
Sweeping: AIG(608) removed...
Sweeping: AIG(609) removed...
Sweeping: AIG(611) removed...
Sweeping: AIG(612) removed...
Sweeping: AIG(613) removed...
Sweeping: AIG(614) removed...
Sweeping: AIG(616) removed...
Sweeping: AIG(617) removed...
Sweeping: AIG(618) removed...
Sweeping: AIG(654) removed...
Sweeping: AIG(655) removed...
Sweeping: AIG(658) removed...
Sweeping: AIG(659) removed...
Sweeping: AIG(660) removed...
Sweeping: AIG(662) removed...
Sweeping: AIG(663) removed...
Sweeping: AIG(664) removed...
Sweeping: AIG(665) removed...
Sweeping: AIG(666) removed...
Sweeping: AIG(667) removed...
Sweeping: AIG(670) removed...
Sweeping: AIG(671) removed...
Sweeping: AIG(673) removed...
Sweeping: AIG(674) removed...
Sweeping: AIG(675) removed...
Sweeping: AIG(677) removed...
Sweeping: AIG(678) removed...
Sweeping: AIG(679) removed...
Sweeping: AIG(680) removed...
Sweeping: AIG(681) removed...
Sweeping: AIG(682) removed...
Sweeping: AIG(683) removed...
Sweeping: AIG(684) removed...
Sweeping: AIG(685) removed...
Sweeping: AIG(686) removed...
Sweeping: AIG(687) removed...
Sweeping: AIG(688) removed...
Sweeping: AIG(689) removed...
Sweeping: AIG(690) removed...
Sweeping: AIG(691) removed...
Sweeping: AIG(696) removed...
Sweeping: AIG(697) removed...
Sweeping: AIG(698) removed...
Sweeping: AIG(721) removed...
Sweeping: AIG(722) removed...
Sweeping: AIG(723) removed...
Sweeping: AIG(724) removed...
Sweeping: AIG(725) removed...
Sweeping: AIG(727) removed...
Sweeping: AIG(728) removed...
Sweeping: AIG(729) removed...
Sweeping: AIG(730) removed...
Sweeping: AIG(733) removed...
Sweeping: AIG(734) removed...
Sweeping: AIG(735) removed...
Sweeping: AIG(736) removed...
Sweeping: AIG(740) removed...
Sweeping: AIG(741) removed...
Sweeping: AIG(742) removed...
Sweeping: AIG(743) removed...
Sweeping: AIG(744) removed...
Sweeping: AIG(745) removed...

fraig> ciropt

fraig> cirstra

fraig> cirsw

fraig> ciropt

fraig> cirstra

fraig> cirsim -r
MAX_FAILS = 6
Total #FEC Group = 0                              Total #FEC Group = 0                              Total #FEC Group = 0                              Total #FEC Group = 0                              Total #FEC Group = 0                              Total #FEC Group = 0                              Total #FEC Group = 0                              192 patterns simulated.

fraig> cirf

fraig> cirsw

fraig> ciropt

fraig> cirstra

fraig> cirsw

fraig> ciropt

fraig> cirstra

fraig> cirsw

fraig> ciropt

fraig> cirstra

fraig> cirsw

fraig> ciropt

fraig> cirstra

fraig> cirp -Sum

Circuit Statistics
==================
  PI          36
  PO           1
  AIG          0
------------------
  Total       37

fraig> q -f

