fraig> cirmiter tests.fraig/sim03.aag myAag/my3.aag

fraig> cirsw

fraig> ciropt

fraig> cirstra
Strashing: 4 merging 13...
Strashing: 5 merging 14...
Strashing: 6 merging 15...

fraig> cirsw

fraig> ciropt
Simplifying: 6 merging !18...
Simplifying: 6 merging 19...
Simplifying: 0 merging 20...

fraig> cirstra

fraig> cirsw

fraig> ciropt

fraig> cirstra

fraig> cirsw

fraig> ciropt

fraig> cirstra

fraig> cirsim -r
MAX_FAILS = 3
Total #FEC Group = 0                              Total #FEC Group = 2                              Total #FEC Group = 2                              Total #FEC Group = 2                              Total #FEC Group = 2                              128 patterns simulated.

fraig> cirf
                                   Proving (!8, 6)...UNSAT!!                                   Proving (!8, !21)...UNSAT!!                                   Proving (!8, 22)...UNSAT!!                                   Proving 23 = 1...UNSAT!!                                   Fraig: 8 merging !6...
Fraig: 8 merging 21...
Fraig: 8 merging !22...
Fraig: 0 merging 23...
Updating by UNSAT... Total #FEC Group = 0

fraig> cirsw
Sweeping: AIG(4) removed...
Sweeping: AIG(5) removed...
Sweeping: AIG(7) removed...
Sweeping: AIG(8) removed...

fraig> ciropt

fraig> cirstra

fraig> cirsw

fraig> ciropt

fraig> cirstra

fraig> cirsw

fraig> ciropt

fraig> cirstra

fraig> cirsw

fraig> ciropt

fraig> cirstra

fraig> cirp -Sum

Circuit Statistics
==================
  PI           3
  PO           2
  AIG          0
------------------
  Total        5

fraig> q -f

