fraig> cirmiter tests.fraig/sim04.aag myAag/my4.aag

fraig> cirsw

fraig> ciropt
Simplifying: 1 merging !4...
Simplifying: 1 merging 5...
Simplifying: 0 merging 6...

fraig> cirstra

fraig> cirsw

fraig> ciropt

fraig> cirstra

fraig> cirsw

fraig> ciropt

fraig> cirstra

fraig> cirsw

fraig> ciropt

fraig> cirstra

fraig> cirsim -r
MAX_FAILS = 3
Total #FEC Group = 0                              Total #FEC Group = 0                              Total #FEC Group = 0                              Total #FEC Group = 0                              96 patterns simulated.

fraig> cirf

fraig> cirsw

fraig> ciropt

fraig> cirstra

fraig> cirsw

fraig> ciropt

fraig> cirstra

fraig> cirsw

fraig> ciropt

fraig> cirstra

fraig> cirsw

fraig> ciropt

fraig> cirstra

fraig> cirp -Sum

Circuit Statistics
==================
  PI           1
  PO           1
  AIG          0
------------------
  Total        2

fraig> q -f

